6502_test/6502_test.vcd
$date
	Fri Jul  5 18:38:48 2024
$end
$version
	Icarus Verilog
$end
$timescale
	1s
$end
$scope module test $end
$var wire 1 ! WE $end
$var wire 8 " DO [7:0] $end
$var wire 16 # AB [15:0] $end
$var reg 8 $ DI [7:0] $end
$var reg 1 % IRQ $end
$var reg 1 & NMI $end
$var reg 6 ' OUTLED [5:0] $end
$var reg 1 ( RDY $end
$var reg 1 ) clk $end
$var reg 1 * reset $end
$scope module myCPU $end
$var wire 8 + A [7:0] $end
$var wire 8 , DI [7:0] $end
$var wire 1 % IRQ $end
$var wire 1 & NMI $end
$var wire 1 ( RDY $end
$var wire 8 - S [7:0] $end
$var wire 8 . X [7:0] $end
$var wire 8 / Y [7:0] $end
$var wire 1 ) clk $end
$var wire 8 0 regfile [7:0] $end
$var wire 1 * reset $end
$var wire 8 1 PCL [7:0] $end
$var wire 8 2 PCH [7:0] $end
$var wire 8 3 P [7:0] $end
$var wire 8 4 IR [7:0] $end
$var wire 1 5 HC $end
$var wire 8 6 DIMUX [7:0] $end
$var wire 1 7 CO $end
$var wire 1 8 AZ $end
$var wire 1 9 AV $end
$var wire 1 : AN $end
$var wire 8 ; ADD [7:0] $end
$var parameter 6 < ABS0 $end
$var parameter 6 = ABS1 $end
$var parameter 6 > ABSX0 $end
$var parameter 6 ? ABSX1 $end
$var parameter 6 @ ABSX2 $end
$var parameter 6 A BRA0 $end
$var parameter 6 B BRA1 $end
$var parameter 6 C BRA2 $end
$var parameter 6 D BRK0 $end
$var parameter 6 E BRK1 $end
$var parameter 6 F BRK2 $end
$var parameter 6 G BRK3 $end
$var parameter 6 H DECODE $end
$var parameter 6 I FETCH $end
$var parameter 6 J INDX0 $end
$var parameter 6 K INDX1 $end
$var parameter 6 L INDX2 $end
$var parameter 6 M INDX3 $end
$var parameter 6 N INDY0 $end
$var parameter 6 O INDY1 $end
$var parameter 6 P INDY2 $end
$var parameter 6 Q INDY3 $end
$var parameter 6 R JMP0 $end
$var parameter 6 S JMP1 $end
$var parameter 6 T JMPI0 $end
$var parameter 6 U JMPI1 $end
$var parameter 6 V JSR0 $end
$var parameter 6 W JSR1 $end
$var parameter 6 X JSR2 $end
$var parameter 6 Y JSR3 $end
$var parameter 4 Z OP_A $end
$var parameter 4 [ OP_ADD $end
$var parameter 4 \ OP_AND $end
$var parameter 4 ] OP_EOR $end
$var parameter 4 ^ OP_OR $end
$var parameter 4 _ OP_ROL $end
$var parameter 4 ` OP_SUB $end
$var parameter 6 a PULL0 $end
$var parameter 6 b PULL1 $end
$var parameter 6 c PULL2 $end
$var parameter 6 d PUSH0 $end
$var parameter 6 e PUSH1 $end
$var parameter 6 f READ $end
$var parameter 6 g REG $end
$var parameter 6 h RTI0 $end
$var parameter 6 i RTI1 $end
$var parameter 6 j RTI2 $end
$var parameter 6 k RTI3 $end
$var parameter 6 l RTI4 $end
$var parameter 6 m RTS0 $end
$var parameter 6 n RTS1 $end
$var parameter 6 o RTS2 $end
$var parameter 6 p RTS3 $end
$var parameter 2 q SEL_A $end
$var parameter 2 r SEL_S $end
$var parameter 2 s SEL_X $end
$var parameter 2 t SEL_Y $end
$var parameter 8 u STACKPAGE $end
$var parameter 6 v WRITE $end
$var parameter 8 w ZEROPAGE $end
$var parameter 6 x ZP0 $end
$var parameter 6 y ZPX0 $end
$var parameter 6 z ZPX1 $end
$var reg 16 { AB [15:0] $end
$var reg 8 | ABH [7:0] $end
$var reg 8 } ABL [7:0] $end
$var reg 4 ~ ADJH [3:0] $end
$var reg 4 !" ADJL [3:0] $end
$var reg 8 "" AI [7:0] $end
$var reg 8 #" BI [7:0] $end
$var reg 1 $" C $end
$var reg 1 %" CI $end
$var reg 1 &" D $end
$var reg 8 '" DIHOLD [7:0] $end
$var reg 8 (" DO [7:0] $end
$var reg 1 )" I $end
$var reg 8 *" IRHOLD [7:0] $end
$var reg 1 +" IRHOLD_valid $end
$var reg 1 ," N $end
$var reg 1 -" NMI_1 $end
$var reg 1 ." NMI_edge $end
$var reg 16 /" PC [15:0] $end
$var reg 1 0" PC_inc $end
$var reg 16 1" PC_temp [15:0] $end
$var reg 1 2" V $end
$var reg 1 3" WE $end
$var reg 1 4" Z $end
$var reg 1 5" adc_bcd $end
$var reg 1 6" adc_sbc $end
$var reg 1 7" adj_bcd $end
$var reg 4 8" alu_op [3:0] $end
$var reg 1 9" alu_shift_right $end
$var reg 1 :" backwards $end
$var reg 1 ;" bit_ins $end
$var reg 1 <" brk $end
$var reg 1 =" clc $end
$var reg 1 >" cld $end
$var reg 1 ?" cli $end
$var reg 1 @" clv $end
$var reg 1 A" compare $end
$var reg 3 B" cond_code [2:0] $end
$var reg 1 C" cond_true $end
$var reg 2 D" dst_reg [1:0] $end
$var reg 1 E" inc $end
$var reg 1 F" index_y $end
$var reg 1 G" load_only $end
$var reg 1 H" load_reg $end
$var reg 4 I" op [3:0] $end
$var reg 1 J" php $end
$var reg 1 K" plp $end
$var reg 2 L" regsel [1:0] $end
$var reg 1 M" res $end
$var reg 1 N" rotate $end
$var reg 1 O" sec $end
$var reg 1 P" sed $end
$var reg 1 Q" sei $end
$var reg 1 R" shift $end
$var reg 1 S" shift_right $end
$var reg 2 T" src_reg [1:0] $end
$var reg 6 U" state [5:0] $end
$var reg 1 V" store $end
$var reg 1 W" write_back $end
$var reg 1 X" write_register $end
$scope module ALU $end
$var wire 8 Y" AI [7:0] $end
$var wire 1 Z" BCD $end
$var wire 8 [" BI [7:0] $end
$var wire 1 %" CI $end
$var wire 1 \" CO9 $end
$var wire 1 ]" HC9 $end
$var wire 1 ( RDY $end
$var wire 1 9 V $end
$var wire 1 ) clk $end
$var wire 4 ^" op [3:0] $end
$var wire 1 9" right $end
$var wire 1 _" temp_HC $end
$var wire 9 `" temp [8:0] $end
$var wire 1 a" adder_CI $end
$var wire 1 8 Z $end
$var reg 1 b" AI7 $end
$var reg 1 c" BI7 $end
$var reg 1 7 CO $end
$var reg 1 5 HC $end
$var reg 1 : N $end
$var reg 8 d" OUT [7:0] $end
$var reg 8 e" temp_BI [7:0] $end
$var reg 5 f" temp_h [4:0] $end
$var reg 5 g" temp_l [4:0] $end
$var reg 9 h" temp_logic [8:0] $end
$upscope $end
$upscope $end
$upscope $end
$enddefinitions $end
$comment Show the parameter values. $end
$dumpall
b110001 z
b110000 y
b101111 x
b0 w
b101110 v
b1 u
b11 t
b10 s
b1 r
b0 q
b101101 p
b101100 o
b101011 n
b101010 m
b101001 l
b101000 k
b100111 j
b100110 i
b100101 h
b100100 g
b100011 f
b100010 e
b100001 d
b100000 c
b11111 b
b11110 a
b111 `
b1011 _
b1100 ^
b1110 ]
b1101 \
b11 [
b1111 Z
b11101 Y
b11100 X
b11011 W
b11010 V
b11001 U
b11000 T
b10111 S
b10110 R
b10101 Q
b10100 P
b10011 O
b10010 N
b10001 M
b10000 L
b1111 K
b1110 J
b1101 I
b1100 H
b1011 G
b1010 F
b1001 E
b1000 D
b111 C
b110 B
b101 A
b100 @
b11 ?
b10 >
b1 =
b0 <
$end
#0
$dumpvars
b0xxxxxxxx h"
bx g"
bx f"
b11111111 e"
bx d"
xc"
xb"
0a"
bx `"
x_"
b111 ^"
0]"
0\"
b0 ["
0Z"
bx Y"
0X"
xW"
xV"
b1000 U"
bx T"
xS"
xR"
xQ"
xP"
xO"
xN"
xM"
b1 L"
xK"
xJ"
bx I"
xH"
xG"
xF"
xE"
bx D"
xC"
bx B"
xA"
x@"
x?"
x>"
x="
x<"
x;"
x:"
09"
b111 8"
x7"
x6"
x5"
04"
13"
02"
bx 1"
00"
bx /"
0."
0-"
0,"
x+"
bx *"
0)"
bx ("
bx '"
0&"
0%"
0$"
b0 #"
bx ""
bx !"
bx ~
bx }
bx |
b1xxxxxxxx {
bx ;
x:
x9
x8
x7
bx 6
x5
bx 4
b110000 3
bx 2
bx 1
bx 0
bx /
bx .
bx -
bx ,
bx +
1*
0)
1(
bx '
0&
0%
bx $
b1xxxxxxxx #
bx "
x!
$end
#1
b0 ~
b0 !"
1c"
b1 |
07"
0+"
1M"
16"
05"
1)
#2
0)
0*
#3
bx L"
b1001 U"
1)
#4
0)
#5
b110000 "
b110000 ("
b1111111111111100 1"
b1010 U"
1)
#6
0)
#7
bx e"
b0 h"
b11111111 2
b11111100 1
bx #"
bx ["
b0 ""
b0 Y"
b11 8"
b11 ^"
b1 L"
1X"
0!
03"
bx "
bx ("
b1111111111111100 #
b1111111111111100 {
10"
b1111111111111100 /"
b1011 U"
b110000 '
1)
#8
0)
#9
b11111101 1
bx L"
0X"
b1111111111111101 #
b1111111111111101 {
00"
b1111111111111101 1"
xc"
0b"
b1111111111111101 /"
b11111111 |
b11111100 }
b110100 3
1)"
b0 '"
b10110 U"
b0 f"
0_"
b0 `"
b0 g"
b0 4
b0 e"
b0 #"
b0 ["
b0 6
b0 $
b0 ,
1)
#10
0)
#11
1C"
09
b1010101000000000 #
b1010101000000000 {
10"
b1010101000000000 1"
b0 B"
0:"
b11111101 }
05
0:
07
18
b0 ;
b0 d"
0c"
b10111 U"
b10101010 `"
b1010 f"
b1010 g"
b10101010 4
b10101010 e"
b10101010 #"
b10101010 ["
b10101010 6
b10101010 $
b10101010 ,
1)
#12
0)
#13
x_"
bx f"
xa"
09
b10101010 2
b1 1
0C"
x%"
bx ""
bx Y"
b0x 8"
b0x ^"
xX"
1:
08
b10101010 ;
b10101010 d"
1c"
b1010101000000001 /"
b10101010 |
b0 }
1:"
b10101001 '"
b101 B"
b1100 U"
bx `"
bx g"
b10101001 4
bx e"
bx #"
bx ["
b1010101000000001 #
b1010101000000001 {
b1010101000000001 1"
b10101001 6
b10101001 $
b10101001 ,
1)
#14
0)
#15
b0 f"
0_"
b0 `"
b0 g"
0a"
b0 e"
b10 1
x9
0%"
b0 #"
b0 ["
b0 ""
b0 Y"
b11 8"
b11 ^"
b0 L"
0X"
b1010101000000010 #
b1010101000000010 {
b1010101000000010 1"
0<"
0P"
0>"
0@"
0Q"
0?"
0O"
0K"
0="
0J"
0;"
b11 I"
0N"
0S"
0A"
0R"
06"
0E"
1G"
0W"
0V"
1F"
b0 T"
b0 D"
1H"
0M"
b1 }
b1010101000000010 /"
x5
x:
x7
x8
bx ;
bx d"
xc"
xb"
b1101 U"
b0 4
b0 6
b0 $
b0 ,
1)
#16
0)
#17
x_"
xa"
09
b11 1
1C"
x%"
bx ""
bx Y"
b0x 8"
b0x ^"
1X"
b1010101000000011 #
b1010101000000011 {
b1010101000000011 1"
05
0:
07
18
b0 ;
b0 d"
0c"
0b"
b1010101000000011 /"
b10 }
0:"
b10001101 '"
b0 B"
b1100 U"
bx `"
bx f"
bx g"
b10001101 4
bx e"
bx #"
bx ["
b10001101 6
b10001101 $
b10001101 ,
1)
#18
0)
#19
b0 f"
0_"
b0 `"
b0 g"
0a"
b0 e"
b100 1
x9
0%"
b0 #"
b0 ["
b0 ""
b0 Y"
b11 8"
b11 ^"
0X"
b0 "
b0 ("
b1010101000000100 #
b1010101000000100 {
b1010101000000100 1"
b100 B"
0G"
1V"
0F"
0H"
b110110 3
14"
1:"
b0 0
b0 +
b11 }
b1010101000000100 /"
x5
x:
x7
x8
bx ;
bx d"
xc"
xb"
b0 U"
b0 4
b0 6
b0 $
b0 ,
1)
#20
0)
#21
x_"
bx g"
xa"
09
b101 1
x%"
bx ""
bx Y"
b0x 8"
b0x ^"
x!
13"
b100000000000000 #
b100000000000000 {
00"
b1010101000000101 1"
05
0:
07
18
b0 ;
b0 d"
0c"
0b"
b1010101000000101 /"
b100 }
0:"
b1000000 '"
b0 B"
b1 U"
bx `"
bx f"
b1000000 4
bx e"
bx #"
bx ["
b1000000 6
b1000000 $
b1000000 ,
1)
#22
0)
#23
b100 f"
0_"
b1000000 `"
b0 g"
0a"
b1000000 e"
x9
0%"
b1000000 #"
b1000000 ["
b0 ""
b0 Y"
b11 8"
b11 ^"
0!
03"
b1010101000000101 #
b1010101000000101 {
10"
b10 B"
b1000000 |
b0 }
x5
x:
x7
x8
bx ;
bx d"
xc"
xb"
b1101 U"
b0 '
1)
#24
0)
#25
x_"
xa"
09
b110 1
x%"
bx ""
bx Y"
b0x 8"
b0x ^"
b1010101000000110 #
b1010101000000110 {
b1010101000000110 1"
05
0:
07
08
b1000000 ;
b1000000 d"
0c"
0b"
b1010101000000110 /"
b10101010 |
b101 }
b1101001 '"
b1100 U"
bx `"
bx f"
bx g"
b1101001 4
bx e"
bx #"
bx ["
b1101001 6
b1101001 $
b1101001 ,
1)
#26
0)
#27
b0 f"
0_"
b1 `"
b1 g"
0a"
b1 e"
0C"
b111 1
x9
0%"
b1 #"
b1 ["
b0 ""
b0 Y"
b11 8"
b11 ^"
b1010101000000111 #
b1010101000000111 {
b1010101000000111 1"
b11 B"
16"
0V"
1F"
1H"
b110 }
b1010101000000111 /"
x5
x:
x7
x8
bx ;
bx d"
xc"
xb"
b1101 U"
b1 4
b1 6
b1 $
b1 ,
1)
#28
0)
#29
x_"
xa"
09
b1000 1
1C"
x%"
bx ""
bx Y"
b0x 8"
b0x ^"
1X"
b1010101000001000 #
b1010101000001000 {
b1010101000001000 1"
05
0:
07
08
b1 ;
b1 d"
0c"
0b"
b1010101000001000 /"
b111 }
b11010000 '"
b0 B"
b1100 U"
bx `"
bx f"
bx g"
b11010000 4
bx e"
bx #"
bx ["
b11010000 6
b11010000 $
b11010000 ,
1)
#30
0)
#31
b10000 f"
1_"
b100000010 `"
b10010 g"
0a"
b1001 e"
b11111001 h"
b1001 1
x9
0%"
b1001 #"
b1001 ["
b11111001 ""
b11111001 Y"
b11 8"
b11 ^"
0X"
b1 "
b1 ("
b1010101000001001 #
b1010101000001001 {
b1010101000001001 1"
b110 B"
06"
0F"
0H"
b110100 3
04"
1:"
b1 0
b1 +
b1000 }
b1010101000001001 /"
x5
x:
x7
x8
bx ;
bx d"
xc"
xb"
b101 U"
b11111001 4
b11111001 6
b11111001 $
b11111001 ,
1)
#32
0)
#33
1a"
b11111111 e"
09
b1010 1
0C"
1%"
b0 #"
b0 ["
b111 8"
b111 ^"
b1010101000000010 #
b1010101000000010 {
b1010101000000010 1"
15
0:
17
08
b10 ;
b10 d"
0c"
1b"
b1010101000001010 /"
b1001 }
b11101010 '"
b111 B"
b110 U"
b110101010 `"
b11010 f"
b11010 g"
b11101010 4
b10101010 h"
b10101010 ""
b10101010 Y"
b11101010 6
b11101010 $
b11101010 ,
1)
#34
0)
#35
x_"
bx `"
bx f"
bx g"
xa"
bx e"
b11 1
09
x%"
bx #"
bx ["
bx ""
bx Y"
b0x 8"
b0x ^"
b1010101000000011 #
b1010101000000011 {
b1010101000000011 1"
b10 }
b1010101000000011 /"
1:
b10101010 ;
b10101010 d"
1c"
b1100 U"
b10001101 4
b10001101 6
b10001101 $
b10001101 ,
1)
#36
0)
#37
b0 f"
0_"
b0 `"
b0 g"
0a"
b0 e"
b0 h"
x9
b100 1
1C"
0%"
b0 #"
b0 ["
b0 ""
b0 Y"
b11 8"
b11 ^"
b1010101000000100 #
b1010101000000100 {
b1010101000000100 1"
x5
x:
x7
x8
bx ;
bx d"
xc"
xb"
b1010101000000100 /"
b11 }
b0 '"
1V"
b100 B"
b0 U"
b0 4
b0 6
b0 $
b0 ,
1)
#38
0)
#39
x_"
bx g"
xa"
b101 1
09
x%"
bx ""
bx Y"
b0x 8"
b0x ^"
x!
13"
b100000000000000 #
b100000000000000 {
00"
b1010101000000101 1"
b0 B"
0:"
b100 }
b1010101000000101 /"
05
0:
07
18
b0 ;
b0 d"
0c"
0b"
b1 U"
bx `"
bx f"
b1000000 4
bx e"
bx #"
bx ["
b1000000 6
b1000000 $
b1000000 ,
1)
#40
0)
#41
b100 f"
0_"
b1000001 `"
b1 g"
0a"
b1000000 e"
b1 h"
x9
0%"
b1000000 #"
b1000000 ["
b1 ""
b1 Y"
b11 8"
b11 ^"
0!
03"
b1010101000000101 #
b1010101000000101 {
10"
x5
x:
x7
x8
bx ;
bx d"
xc"
xb"
b1000000 |
b0 }
b1000000 '"
b10 B"
b1101 U"
b1 '
1)
#42
0)
#43
x_"
xa"
b110 1
09
x%"
bx ""
bx Y"
b0x 8"
b0x ^"
b1010101000000110 #
b1010101000000110 {
b1010101000000110 1"
b10101010 |
b101 }
b1010101000000110 /"
05
0:
07
08
b1000001 ;
b1000001 d"
0c"
0b"
b1100 U"
bx `"
bx f"
bx g"
b1101001 4
bx e"
bx #"
bx ["
b1101001 6
b1101001 $
b1101001 ,
1)
#44
0)
#45
b0 f"
0_"
b10 `"
b10 g"
0a"
b1 e"
x9
b111 1
0C"
0%"
b1 #"
b1 ["
b1 ""
b1 Y"
b11 8"
b11 ^"
b1010101000000111 #
b1010101000000111 {
b1010101000000111 1"
x5
x:
x7
x8
bx ;
bx d"
xc"
xb"
b1010101000000111 /"
b110 }
b1 '"
1H"
1F"
0V"
16"
b11 B"
b1101 U"
b1 4
b1 6
b1 $
b1 ,
1)
#46
0)
#47
x_"
xa"
1C"
b1000 1
09
x%"
bx ""
bx Y"
b0x 8"
b0x ^"
1X"
b1010101000001000 #
b1010101000001000 {
b1010101000001000 1"
b0 B"
b111 }
b1010101000001000 /"
05
0:
07
08
b10 ;
b10 d"
0c"
0b"
b1100 U"
bx `"
bx f"
bx g"
b11010000 4
bx e"
bx #"
bx ["
b11010000 6
b11010000 $
b11010000 ,
1)
#48
0)
#49
b10000 f"
1_"
b100000010 `"
b10010 g"
0a"
b1001 e"
b11111001 h"
x9
b1001 1
0%"
b1001 #"
b1001 ["
b11111001 ""
b11111001 Y"
b11 8"
b11 ^"
0X"
b10 "
b10 ("
b1010101000001001 #
b1010101000001001 {
b1010101000001001 1"
x5
x:
x7
x8
bx ;
bx d"
xc"
xb"
b1010101000001001 /"
b1000 }
b10 0
b10 +
1:"
b11111001 '"
0H"
0F"
06"
b110 B"
b101 U"
b11111001 4
b11111001 6
b11111001 $
b11111001 ,
1)
#50
0)
#51
1a"
b11111111 e"
0C"
b1010 1
09
1%"
b0 #"
b0 ["
b111 8"
b111 ^"
b1010101000000010 #
b1010101000000010 {
b1010101000000010 1"
b111 B"
b1001 }
b1010101000001010 /"
15
0:
17
08
b10 ;
b10 d"
0c"
1b"
b110 U"
b110101010 `"
b11010 f"
b11010 g"
b11101010 4
b10101010 h"
b10101010 ""
b10101010 Y"
b11101010 6
b11101010 $
b11101010 ,
1)
#52
0)
#53
x_"
bx `"
bx f"
bx g"
xa"
bx e"
09
b11 1
x%"
bx #"
bx ["
bx ""
bx Y"
b0x 8"
b0x ^"
b1010101000000011 #
b1010101000000011 {
b1010101000000011 1"
1:
b10101010 ;
b10101010 d"
1c"
b1010101000000011 /"
b10 }
b10001101 '"
b1100 U"
b10001101 4
b10001101 6
b10001101 $
b10001101 ,
1)
#54
0)
#55
b0 f"
0_"
b0 `"
b0 g"
0a"
b0 e"
b0 h"
1C"
b100 1
x9
0%"
b0 #"
b0 ["
b0 ""
b0 Y"
b11 8"
b11 ^"
b1010101000000100 #
b1010101000000100 {
b1010101000000100 1"
b100 B"
1V"
b11 }
b1010101000000100 /"
x5
x:
x7
x8
bx ;
bx d"
xc"
xb"
b0 U"
b0 4
b0 6
b0 $
b0 ,
1)
#56
0)
#57
x_"
bx g"
xa"
09
b101 1
x%"
bx ""
bx Y"
b0x 8"
b0x ^"
x!
13"
b100000000000000 #
b100000000000000 {
00"
b1010101000000101 1"
05
0:
07
18
b0 ;
b0 d"
0c"
0b"
b1010101000000101 /"
b100 }
0:"
b1000000 '"
b0 B"
b1 U"
bx `"
bx f"
b1000000 4
bx e"
bx #"
bx ["
b1000000 6
b1000000 $
b1000000 ,
1)
#58
0)
#59
b100 f"
0_"
b1000010 `"
b10 g"
0a"
b1000000 e"
b10 h"
x9
0%"
b1000000 #"
b1000000 ["
b10 ""
b10 Y"
b11 8"
b11 ^"
0!
03"
b1010101000000101 #
b1010101000000101 {
10"
b10 B"
b1000000 |
b0 }
x5
x:
x7
x8
bx ;
bx d"
xc"
xb"
b1101 U"
b10 '
1)
#60
0)
#61
x_"
xa"
09
b110 1
x%"
bx ""
bx Y"
b0x 8"
b0x ^"
b1010101000000110 #
b1010101000000110 {
b1010101000000110 1"
05
0:
07
08
b1000010 ;
b1000010 d"
0c"
0b"
b1010101000000110 /"
b10101010 |
b101 }
b1101001 '"
b1100 U"
bx `"
bx f"
bx g"
b1101001 4
bx e"
bx #"
bx ["
b1101001 6
b1101001 $
b1101001 ,
1)
#62
0)
#63
b0 f"
0_"
b11 `"
b11 g"
0a"
b1 e"
0C"
b111 1
x9
0%"
b1 #"
b1 ["
b10 ""
b10 Y"
b11 8"
b11 ^"
b1010101000000111 #
b1010101000000111 {
b1010101000000111 1"
b11 B"
16"
0V"
1F"
1H"
b110 }
b1010101000000111 /"
x5
x:
x7
x8
bx ;
bx d"
xc"
xb"
b1101 U"
b1 4
b1 6
b1 $
b1 ,
1)
#64
0)
#65
x_"
xa"
09
b1000 1
1C"
x%"
bx ""
bx Y"
b0x 8"
b0x ^"
1X"
b1010101000001000 #
b1010101000001000 {
b1010101000001000 1"
05
0:
07
08
b11 ;
b11 d"
0c"
0b"
b1010101000001000 /"
b111 }
b11010000 '"
b0 B"
b1100 U"
bx `"
bx f"
bx g"
b11010000 4
bx e"
bx #"
bx ["
b11010000 6
b11010000 $
b11010000 ,
1)
#66
0)
#67
b10000 f"
1_"
b100000010 `"
b10010 g"
0a"
b1001 e"
b11111001 h"
b1001 1
x9
0%"
b1001 #"
b1001 ["
b11111001 ""
b11111001 Y"
b11 8"
b11 ^"
0X"
b11 "
b11 ("
b1010101000001001 #
b1010101000001001 {
b1010101000001001 1"
b110 B"
06"
0F"
0H"
1:"
b11 0
b11 +
b1000 }
b1010101000001001 /"
x5
x:
x7
x8
bx ;
bx d"
xc"
xb"
b101 U"
b11111001 4
b11111001 6
b11111001 $
b11111001 ,
1)
#68
0)
#69
1a"
b11111111 e"
09
b1010 1
0C"
1%"
b0 #"
b0 ["
b111 8"
b111 ^"
b1010101000000010 #
b1010101000000010 {
b1010101000000010 1"
15
0:
17
08
b10 ;
b10 d"
0c"
1b"
b1010101000001010 /"
b1001 }
b11101010 '"
b111 B"
b110 U"
b110101010 `"
b11010 f"
b11010 g"
b11101010 4
b10101010 h"
b10101010 ""
b10101010 Y"
b11101010 6
b11101010 $
b11101010 ,
1)
#70
0)
#71
x_"
bx `"
bx f"
bx g"
xa"
bx e"
b11 1
09
x%"
bx #"
bx ["
bx ""
bx Y"
b0x 8"
b0x ^"
b1010101000000011 #
b1010101000000011 {
b1010101000000011 1"
b10 }
b1010101000000011 /"
1:
b10101010 ;
b10101010 d"
1c"
b1100 U"
b10001101 4
b10001101 6
b10001101 $
b10001101 ,
1)
#72
0)
#73
b0 f"
0_"
b0 `"
b0 g"
0a"
b0 e"
b0 h"
x9
b100 1
1C"
0%"
b0 #"
b0 ["
b0 ""
b0 Y"
b11 8"
b11 ^"
b1010101000000100 #
b1010101000000100 {
b1010101000000100 1"
x5
x:
x7
x8
bx ;
bx d"
xc"
xb"
b1010101000000100 /"
b11 }
b0 '"
1V"
b100 B"
b0 U"
b0 4
b0 6
b0 $
b0 ,
1)
#74
0)
#75
x_"
bx g"
xa"
b101 1
09
x%"
bx ""
bx Y"
b0x 8"
b0x ^"
x!
13"
b100000000000000 #
b100000000000000 {
00"
b1010101000000101 1"
b0 B"
0:"
b100 }
b1010101000000101 /"
05
0:
07
18
b0 ;
b0 d"
0c"
0b"
b1 U"
bx `"
bx f"
b1000000 4
bx e"
bx #"
bx ["
b1000000 6
b1000000 $
b1000000 ,
1)
#76
0)
#77
b100 f"
0_"
b1000011 `"
b11 g"
0a"
b1000000 e"
b11 h"
x9
0%"
b1000000 #"
b1000000 ["
b11 ""
b11 Y"
b11 8"
b11 ^"
0!
03"
b1010101000000101 #
b1010101000000101 {
10"
x5
x:
x7
x8
bx ;
bx d"
xc"
xb"
b1000000 |
b0 }
b1000000 '"
b10 B"
b1101 U"
b11 '
1)
#78
0)
#79
x_"
xa"
b110 1
09
x%"
bx ""
bx Y"
b0x 8"
b0x ^"
b1010101000000110 #
b1010101000000110 {
b1010101000000110 1"
b10101010 |
b101 }
b1010101000000110 /"
05
0:
07
08
b1000011 ;
b1000011 d"
0c"
0b"
b1100 U"
bx `"
bx f"
bx g"
b1101001 4
bx e"
bx #"
bx ["
b1101001 6
b1101001 $
b1101001 ,
1)
#80
0)
#81
b0 f"
0_"
b100 `"
b100 g"
0a"
b1 e"
x9
b111 1
0C"
0%"
b1 #"
b1 ["
b11 ""
b11 Y"
b11 8"
b11 ^"
b1010101000000111 #
b1010101000000111 {
b1010101000000111 1"
x5
x:
x7
x8
bx ;
bx d"
xc"
xb"
b1010101000000111 /"
b110 }
b1 '"
1H"
1F"
0V"
16"
b11 B"
b1101 U"
b1 4
b1 6
b1 $
b1 ,
1)
#82
0)
#83
x_"
xa"
1C"
b1000 1
09
x%"
bx ""
bx Y"
b0x 8"
b0x ^"
1X"
b1010101000001000 #
b1010101000001000 {
b1010101000001000 1"
b0 B"
b111 }
b1010101000001000 /"
05
0:
07
08
b100 ;
b100 d"
0c"
0b"
b1100 U"
bx `"
bx f"
bx g"
b11010000 4
bx e"
bx #"
bx ["
b11010000 6
b11010000 $
b11010000 ,
1)
#84
0)
#85
b10000 f"
1_"
b100000010 `"
b10010 g"
0a"
b1001 e"
b11111001 h"
x9
b1001 1
0%"
b1001 #"
b1001 ["
b11111001 ""
b11111001 Y"
b11 8"
b11 ^"
0X"
b100 "
b100 ("
b1010101000001001 #
b1010101000001001 {
b1010101000001001 1"
x5
x:
x7
x8
bx ;
bx d"
xc"
xb"
b1010101000001001 /"
b1000 }
b100 0
b100 +
1:"
b11111001 '"
0H"
0F"
06"
b110 B"
b101 U"
b11111001 4
b11111001 6
b11111001 $
b11111001 ,
1)
#86
0)
#87
1a"
b11111111 e"
0C"
b1010 1
09
1%"
b0 #"
b0 ["
b111 8"
b111 ^"
b1010101000000010 #
b1010101000000010 {
b1010101000000010 1"
b111 B"
b1001 }
b1010101000001010 /"
15
0:
17
08
b10 ;
b10 d"
0c"
1b"
b110 U"
b110101010 `"
b11010 f"
b11010 g"
b11101010 4
b10101010 h"
b10101010 ""
b10101010 Y"
b11101010 6
b11101010 $
b11101010 ,
1)
#88
0)
#89
x_"
bx `"
bx f"
bx g"
xa"
bx e"
09
b11 1
x%"
bx #"
bx ["
bx ""
bx Y"
b0x 8"
b0x ^"
b1010101000000011 #
b1010101000000011 {
b1010101000000011 1"
1:
b10101010 ;
b10101010 d"
1c"
b1010101000000011 /"
b10 }
b10001101 '"
b1100 U"
b10001101 4
b10001101 6
b10001101 $
b10001101 ,
1)
#90
0)
#91
b0 f"
0_"
b0 `"
b0 g"
0a"
b0 e"
b0 h"
1C"
b100 1
x9
0%"
b0 #"
b0 ["
b0 ""
b0 Y"
b11 8"
b11 ^"
b1010101000000100 #
b1010101000000100 {
b1010101000000100 1"
b100 B"
1V"
b11 }
b1010101000000100 /"
x5
x:
x7
x8
bx ;
bx d"
xc"
xb"
b0 U"
b0 4
b0 6
b0 $
b0 ,
1)
#92
0)
#93
x_"
bx g"
xa"
09
b101 1
x%"
bx ""
bx Y"
b0x 8"
b0x ^"
x!
13"
b100000000000000 #
b100000000000000 {
00"
b1010101000000101 1"
05
0:
07
18
b0 ;
b0 d"
0c"
0b"
b1010101000000101 /"
b100 }
0:"
b1000000 '"
b0 B"
b1 U"
bx `"
bx f"
b1000000 4
bx e"
bx #"
bx ["
b1000000 6
b1000000 $
b1000000 ,
1)
#94
0)
#95
b100 f"
0_"
b1000100 `"
b100 g"
0a"
b1000000 e"
b100 h"
x9
0%"
b1000000 #"
b1000000 ["
b100 ""
b100 Y"
b11 8"
b11 ^"
0!
03"
b1010101000000101 #
b1010101000000101 {
10"
b10 B"
b1000000 |
b0 }
x5
x:
x7
x8
bx ;
bx d"
xc"
xb"
b1101 U"
b100 '
1)
#96
0)
#97
x_"
xa"
09
b110 1
x%"
bx ""
bx Y"
b0x 8"
b0x ^"
b1010101000000110 #
b1010101000000110 {
b1010101000000110 1"
05
0:
07
08
b1000100 ;
b1000100 d"
0c"
0b"
b1010101000000110 /"
b10101010 |
b101 }
b1101001 '"
b1100 U"
bx `"
bx f"
bx g"
b1101001 4
bx e"
bx #"
bx ["
b1101001 6
b1101001 $
b1101001 ,
1)
#98
0)
#99
b0 f"
0_"
b101 `"
b101 g"
0a"
b1 e"
0C"
b111 1
x9
0%"
b1 #"
b1 ["
b100 ""
b100 Y"
b11 8"
b11 ^"
b1010101000000111 #
b1010101000000111 {
b1010101000000111 1"
b11 B"
16"
0V"
1F"
1H"
b110 }
b1010101000000111 /"
x5
x:
x7
x8
bx ;
bx d"
xc"
xb"
b1101 U"
b1 4
b1 6
b1 $
b1 ,
1)
#100
0)
#101
x_"
xa"
09
b1000 1
1C"
x%"
bx ""
bx Y"
b0x 8"
b0x ^"
1X"
b1010101000001000 #
b1010101000001000 {
b1010101000001000 1"
05
0:
07
08
b101 ;
b101 d"
0c"
0b"
b1010101000001000 /"
b111 }
b11010000 '"
b0 B"
b1100 U"
bx `"
bx f"
bx g"
b11010000 4
bx e"
bx #"
bx ["
b11010000 6
b11010000 $
b11010000 ,
1)
