6502_test/6502_test.vcd
$date
	Mon Jul  8 16:55:36 2024
$end
$version
	Icarus Verilog
$end
$timescale
	1s
$end
$scope module test $end
$var wire 6 ! led [5:0] $end
$var wire 1 " clk_cpu $end
$var reg 1 # clk $end
$scope module system_6502 $end
$var wire 1 # clk $end
$var wire 1 " clk_o $end
$var wire 1 $ WE $end
$var wire 8 % DO [7:0] $end
$var wire 16 & AB [15:0] $end
$var parameter 32 ' CLKDIV $end
$var parameter 32 ( reset_del $end
$var reg 8 ) DI [7:0] $end
$var reg 1 * IRQ $end
$var reg 1 + NMI $end
$var reg 1 , RDY $end
$var reg 1 - clk_cpu $end
$var reg 24 . counter [23:0] $end
$var reg 6 / led [5:0] $end
$var reg 1 0 reset $end
$var reg 8 1 reset_cntr [7:0] $end
$scope module my_6502 $end
$var wire 8 2 A [7:0] $end
$var wire 8 3 DI [7:0] $end
$var wire 1 * IRQ $end
$var wire 1 + NMI $end
$var wire 1 , RDY $end
$var wire 8 4 S [7:0] $end
$var wire 8 5 X [7:0] $end
$var wire 8 6 Y [7:0] $end
$var wire 1 - clk $end
$var wire 8 7 regfile [7:0] $end
$var wire 1 0 reset $end
$var wire 8 8 PCL [7:0] $end
$var wire 8 9 PCH [7:0] $end
$var wire 8 : P [7:0] $end
$var wire 8 ; IR [7:0] $end
$var wire 1 < HC $end
$var wire 8 = DIMUX [7:0] $end
$var wire 1 > CO $end
$var wire 1 ? AZ $end
$var wire 1 @ AV $end
$var wire 1 A AN $end
$var wire 8 B ADD [7:0] $end
$var parameter 6 C ABS0 $end
$var parameter 6 D ABS1 $end
$var parameter 6 E ABSX0 $end
$var parameter 6 F ABSX1 $end
$var parameter 6 G ABSX2 $end
$var parameter 6 H BRA0 $end
$var parameter 6 I BRA1 $end
$var parameter 6 J BRA2 $end
$var parameter 6 K BRK0 $end
$var parameter 6 L BRK1 $end
$var parameter 6 M BRK2 $end
$var parameter 6 N BRK3 $end
$var parameter 6 O DECODE $end
$var parameter 6 P FETCH $end
$var parameter 6 Q INDX0 $end
$var parameter 6 R INDX1 $end
$var parameter 6 S INDX2 $end
$var parameter 6 T INDX3 $end
$var parameter 6 U INDY0 $end
$var parameter 6 V INDY1 $end
$var parameter 6 W INDY2 $end
$var parameter 6 X INDY3 $end
$var parameter 6 Y JMP0 $end
$var parameter 6 Z JMP1 $end
$var parameter 6 [ JMPI0 $end
$var parameter 6 \ JMPI1 $end
$var parameter 6 ] JSR0 $end
$var parameter 6 ^ JSR1 $end
$var parameter 6 _ JSR2 $end
$var parameter 6 ` JSR3 $end
$var parameter 4 a OP_A $end
$var parameter 4 b OP_ADD $end
$var parameter 4 c OP_AND $end
$var parameter 4 d OP_EOR $end
$var parameter 4 e OP_OR $end
$var parameter 4 f OP_ROL $end
$var parameter 4 g OP_SUB $end
$var parameter 6 h PULL0 $end
$var parameter 6 i PULL1 $end
$var parameter 6 j PULL2 $end
$var parameter 6 k PUSH0 $end
$var parameter 6 l PUSH1 $end
$var parameter 6 m READ $end
$var parameter 6 n REG $end
$var parameter 6 o RTI0 $end
$var parameter 6 p RTI1 $end
$var parameter 6 q RTI2 $end
$var parameter 6 r RTI3 $end
$var parameter 6 s RTI4 $end
$var parameter 6 t RTS0 $end
$var parameter 6 u RTS1 $end
$var parameter 6 v RTS2 $end
$var parameter 6 w RTS3 $end
$var parameter 2 x SEL_A $end
$var parameter 2 y SEL_S $end
$var parameter 2 z SEL_X $end
$var parameter 2 { SEL_Y $end
$var parameter 8 | STACKPAGE $end
$var parameter 6 } WRITE $end
$var parameter 8 ~ ZEROPAGE $end
$var parameter 6 !" ZP0 $end
$var parameter 6 "" ZPX0 $end
$var parameter 6 #" ZPX1 $end
$var reg 16 $" AB [15:0] $end
$var reg 8 %" ABH [7:0] $end
$var reg 8 &" ABL [7:0] $end
$var reg 4 '" ADJH [3:0] $end
$var reg 4 (" ADJL [3:0] $end
$var reg 8 )" AI [7:0] $end
$var reg 8 *" BI [7:0] $end
$var reg 1 +" C $end
$var reg 1 ," CI $end
$var reg 1 -" D $end
$var reg 8 ." DIHOLD [7:0] $end
$var reg 8 /" DO [7:0] $end
$var reg 1 0" I $end
$var reg 8 1" IRHOLD [7:0] $end
$var reg 1 2" IRHOLD_valid $end
$var reg 1 3" N $end
$var reg 1 4" NMI_1 $end
$var reg 1 5" NMI_edge $end
$var reg 16 6" PC [15:0] $end
$var reg 1 7" PC_inc $end
$var reg 16 8" PC_temp [15:0] $end
$var reg 1 9" V $end
$var reg 1 $ WE $end
$var reg 1 :" Z $end
$var reg 1 ;" adc_bcd $end
$var reg 1 <" adc_sbc $end
$var reg 1 =" adj_bcd $end
$var reg 4 >" alu_op [3:0] $end
$var reg 1 ?" alu_shift_right $end
$var reg 1 @" backwards $end
$var reg 1 A" bit_ins $end
$var reg 1 B" brk $end
$var reg 1 C" clc $end
$var reg 1 D" cld $end
$var reg 1 E" cli $end
$var reg 1 F" clv $end
$var reg 1 G" compare $end
$var reg 3 H" cond_code [2:0] $end
$var reg 1 I" cond_true $end
$var reg 2 J" dst_reg [1:0] $end
$var reg 1 K" inc $end
$var reg 1 L" index_y $end
$var reg 1 M" load_only $end
$var reg 1 N" load_reg $end
$var reg 4 O" op [3:0] $end
$var reg 1 P" php $end
$var reg 1 Q" plp $end
$var reg 2 R" regsel [1:0] $end
$var reg 1 S" res $end
$var reg 1 T" rotate $end
$var reg 1 U" sec $end
$var reg 1 V" sed $end
$var reg 1 W" sei $end
$var reg 1 X" shift $end
$var reg 1 Y" shift_right $end
$var reg 2 Z" src_reg [1:0] $end
$var reg 6 [" state [5:0] $end
$var reg 1 \" store $end
$var reg 1 ]" write_back $end
$var reg 1 ^" write_register $end
$scope module ALU $end
$var wire 8 _" AI [7:0] $end
$var wire 1 `" BCD $end
$var wire 8 a" BI [7:0] $end
$var wire 1 ," CI $end
$var wire 1 b" CO9 $end
$var wire 1 c" HC9 $end
$var wire 1 , RDY $end
$var wire 1 @ V $end
$var wire 1 - clk $end
$var wire 4 d" op [3:0] $end
$var wire 1 ?" right $end
$var wire 1 e" temp_HC $end
$var wire 9 f" temp [8:0] $end
$var wire 1 g" adder_CI $end
$var wire 1 ? Z $end
$var reg 1 h" AI7 $end
$var reg 1 i" BI7 $end
$var reg 1 > CO $end
$var reg 1 < HC $end
$var reg 1 A N $end
$var reg 8 j" OUT [7:0] $end
$var reg 8 k" temp_BI [7:0] $end
$var reg 5 l" temp_h [4:0] $end
$var reg 5 m" temp_l [4:0] $end
$var reg 9 n" temp_logic [8:0] $end
$upscope $end
$upscope $end
$upscope $end
$upscope $end
$enddefinitions $end
$comment Show the parameter values. $end
$dumpall
b110001 #"
b110000 ""
b101111 !"
b0 ~
b101110 }
b1 |
b11 {
b10 z
b1 y
b0 x
b101101 w
b101100 v
b101011 u
b101010 t
b101001 s
b101000 r
b100111 q
b100110 p
b100101 o
b100100 n
b100011 m
b100010 l
b100001 k
b100000 j
b11111 i
b11110 h
b111 g
b1011 f
b1100 e
b1110 d
b1101 c
b11 b
b1111 a
b11101 `
b11100 _
b11011 ^
b11010 ]
b11001 \
b11000 [
b10111 Z
b10110 Y
b10101 X
b10100 W
b10011 V
b10010 U
b10001 T
b10000 S
b1111 R
b1110 Q
b1101 P
b1100 O
b1011 N
b1010 M
b1001 L
b1000 K
b111 J
b110 I
b101 H
b100 G
b11 F
b10 E
b1 D
b0 C
b10 (
b1 '
$end
#0
$dumpvars
b0xxxxxxxx n"
bx m"
bx l"
b11111111 k"
bx j"
xi"
xh"
0g"
bx f"
xe"
b111 d"
0c"
0b"
b0 a"
0`"
bx _"
0^"
x]"
x\"
b1000 ["
bx Z"
xY"
xX"
xW"
xV"
xU"
xT"
xS"
b1 R"
xQ"
xP"
bx O"
xN"
xM"
xL"
xK"
bx J"
xI"
bx H"
xG"
xF"
xE"
xD"
xC"
xB"
xA"
x@"
0?"
b111 >"
x="
x<"
x;"
0:"
09"
bx 8"
07"
bx 6"
05"
04"
03"
x2"
bx 1"
00"
bx /"
bx ."
0-"
0,"
0+"
b0 *"
bx )"
bx ("
bx '"
bx &"
bx %"
b1xxxxxxxx $"
bx B
xA
x@
x?
x>
bx =
x<
bx ;
b110000 :
bx 9
bx 8
bx 7
bx 6
bx 5
bx 4
bx 3
bx 2
b0 1
10
bx /
b0 .
0-
1,
0+
0*
bx )
b1xxxxxxxx &
bx %
1$
0#
0"
bx !
$end
#1
b1 .
1#
#2
0#
#3
b0 '"
b0 ("
1i"
b1 %"
0="
02"
1S"
1<"
0;"
b1 1
b0 .
1"
1-
1#
#4
0#
#5
b1 .
1#
#6
0#
#7
b0 .
0"
0-
1#
#8
0#
#9
b1 .
1#
#10
0#
#11
b10 1
b0 .
1"
1-
1#
#12
0#
#13
b1 .
1#
#14
0#
#15
b0 .
0"
0-
1#
#16
0#
#17
b1 .
1#
#18
0#
#19
b11 1
b0 .
00
1"
1-
1#
#20
0#
#21
b1 .
1#
#22
0#
#23
b0 .
0"
0-
1#
#24
0#
#25
b1 .
1#
#26
0#
#27
bx R"
b1001 ["
b0 .
1"
1-
1#
#28
0#
#29
b1 .
1#
#30
0#
#31
b0 .
0"
0-
1#
#32
0#
#33
b1 .
1#
#34
0#
#35
b110000 %
b110000 /"
b1111111111111100 8"
b1010 ["
b0 .
1"
1-
1#
#36
0#
#37
b1 .
1#
#38
0#
#39
b0 .
0"
0-
1#
#40
0#
#41
b1 .
1#
#42
0#
#43
bx k"
b0 n"
b11111111 9
b11111100 8
bx *"
bx a"
b0 )"
b0 _"
b11 >"
b11 d"
b1 R"
1^"
0$
bx %
bx /"
b1111111111111100 &
b1111111111111100 $"
17"
b1111111111111100 6"
b1011 ["
b0 .
1"
1-
1#
#44
0#
#45
b1 .
1#
#46
0#
#47
b0 .
0"
0-
1#
#48
0#
#49
b1 .
1#
#50
0#
#51
b0 l"
0e"
b0 f"
b0 m"
b0 ;
b0 k"
b0 *"
b0 a"
b11111101 8
b0 =
bx R"
0^"
b1111111111111101 &
b1111111111111101 $"
07"
b1111111111111101 8"
xi"
0h"
b1111111111111101 6"
b11111111 %"
b11111100 &"
b110100 :
10"
b0 )
b0 3
b10110 ["
b0 .
1"
1-
1#
#52
0#
#53
b1 .
1#
#54
0#
#55
b0 .
0"
0-
1#
#56
0#
#57
b1 .
1#
#58
0#
#59
b10101010 f"
b1010 l"
b1010 m"
b10101010 ;
b10101010 k"
b10101010 *"
b10101010 a"
b10101010 =
1I"
0@
b1010101000000000 &
b1010101000000000 $"
17"
b1010101000000000 8"
b10101010 )
b10101010 3
b0 H"
b0 ."
0@"
b11111101 &"
0<
0A
0>
1?
b0 B
b0 j"
0i"
b10111 ["
b0 .
1"
1-
1#
#60
0#
#61
b1 .
1#
#62
0#
#63
b0 .
0"
0-
1#
#64
0#
#65
b1 .
1#
#66
0#
#67
xe"
b10101001 ;
bx f"
bx l"
bx m"
xg"
bx k"
0@
b10101010 9
b1 8
0I"
b10101001 =
x,"
bx *"
bx a"
bx )"
bx _"
b0x >"
b0x d"
x^"
b1010101000000001 &
b1010101000000001 $"
b1010101000000001 8"
1A
0?
b10101010 B
b10101010 j"
1i"
b1010101000000001 6"
b10101010 %"
b0 &"
1@"
b10101010 ."
b101 H"
b10101001 )
b10101001 3
b1100 ["
b0 .
1"
1-
1#
#68
0#
#69
b1 .
1#
#70
0#
#71
b0 .
0"
0-
1#
#72
0#
#73
b1 .
1#
#74
0#
#75
b0 l"
0e"
b0 f"
b0 ;
b0 m"
0g"
b0 k"
b0 =
b10 8
x@
0,"
b0 *"
b0 a"
b0 )"
b0 _"
b11 >"
b11 d"
b0 R"
0^"
b1010101000000010 &
b1010101000000010 $"
b1010101000000010 8"
b0 )
b0 3
0B"
0V"
0D"
0F"
0W"
0E"
0U"
0Q"
0C"
0P"
0A"
b11 O"
0T"
0Y"
0G"
0X"
0<"
0K"
1M"
0]"
0\"
1L"
b0 Z"
b0 J"
1N"
0S"
b10101001 ."
b1 &"
b1010101000000010 6"
x<
xA
x>
x?
bx B
bx j"
xi"
xh"
b1101 ["
b0 .
1"
1-
1#
#76
0#
#77
b1 .
1#
#78
0#
#79
b0 .
0"
0-
1#
#80
0#
#81
b1 .
1#
#82
0#
#83
xe"
b10001101 ;
bx f"
bx l"
bx m"
xg"
bx k"
0@
b11 8
1I"
b10001101 =
x,"
bx *"
bx a"
bx )"
bx _"
b0x >"
b0x d"
1^"
b1010101000000011 &
b1010101000000011 $"
b1010101000000011 8"
0<
0A
0>
1?
b0 B
b0 j"
0i"
0h"
b1010101000000011 6"
b10 &"
0@"
b0 ."
b0 H"
b10001101 )
b10001101 3
b1100 ["
b0 .
1"
1-
1#
#84
0#
#85
b1 .
1#
#86
0#
#87
b0 .
0"
0-
1#
#88
0#
#89
b1 .
1#
#90
0#
#91
b0 l"
0e"
b0 f"
b0 ;
b0 m"
0g"
b0 k"
b0 =
b100 8
x@
0,"
b0 *"
b0 a"
b0 )"
b0 _"
b11 >"
b11 d"
0^"
b0 %
b0 /"
b1010101000000100 &
b1010101000000100 $"
b1010101000000100 8"
b0 )
b0 3
b100 H"
0M"
1\"
0L"
0N"
b10001101 ."
b110110 :
1:"
1@"
b0 7
b0 2
b11 &"
b1010101000000100 6"
x<
xA
x>
x?
bx B
bx j"
xi"
xh"
b0 ["
b0 .
1"
1-
1#
#92
0#
#93
b1 .
1#
#94
0#
#95
b0 .
0"
0-
1#
#96
0#
#97
b1 .
1#
#98
0#
#99
xe"
b1000000 ;
bx f"
bx l"
bx m"
xg"
bx k"
0@
b101 8
b1000000 =
x,"
bx *"
bx a"
bx )"
bx _"
b0x >"
b0x d"
1$
b100000000000000 &
b100000000000000 $"
07"
b1010101000000101 8"
0<
0A
0>
1?
b0 B
b0 j"
0i"
0h"
b1010101000000101 6"
b100 &"
0@"
b0 ."
b0 H"
b1000000 )
b1000000 3
b1 ["
b0 .
1"
1-
1#
#100
0#
#101
b1 .
1#
#102
0#
#103
b0 .
0"
0-
1#
#104
0#
#105
b1 .
1#
#106
0#
#107
b100 l"
0e"
b1000000 f"
b0 m"
0g"
b1000000 k"
x@
0,"
b1000000 *"
b1000000 a"
b0 )"
b0 _"
b11 >"
b11 d"
0$
b1010101000000101 &
b1010101000000101 $"
17"
b0 !
b0 /
b10 H"
b1000000 ."
b1000000 %"
b0 &"
x<
xA
x>
x?
bx B
bx j"
xi"
xh"
b1101 ["
b0 .
1"
1-
1#
#108
0#
#109
b1 .
1#
#110
0#
#111
b0 .
0"
0-
1#
#112
0#
#113
b1 .
1#
#114
0#
#115
xe"
b1101001 ;
bx f"
bx l"
bx m"
xg"
bx k"
0@
b110 8
b1101001 =
x,"
bx *"
bx a"
bx )"
bx _"
b0x >"
b0x d"
b1010101000000110 &
b1010101000000110 $"
b1010101000000110 8"
0<
0A
0>
0?
b1000000 B
b1000000 j"
0i"
0h"
b1010101000000110 6"
b10101010 %"
b101 &"
b1101001 )
b1101001 3
b1100 ["
b0 .
1"
1-
1#
#116
0#
#117
b1 .
1#
#118
0#
#119
b0 .
0"
0-
1#
#120
0#
#121
b1 .
1#
#122
0#
#123
b0 l"
0e"
b1 f"
b1 ;
b1 m"
0g"
b1 k"
b1 =
0I"
b111 8
x@
0,"
b1 *"
b1 a"
b0 )"
b0 _"
b11 >"
b11 d"
b1010101000000111 &
b1010101000000111 $"
b1010101000000111 8"
b1 )
b1 3
b11 H"
1<"
0\"
1L"
1N"
b1101001 ."
b110 &"
b1010101000000111 6"
x<
xA
x>
x?
bx B
bx j"
xi"
xh"
b1101 ["
b0 .
1"
1-
1#
#124
0#
#125
b1 .
1#
#126
0#
#127
b0 .
0"
0-
1#
#128
0#
#129
b1 .
1#
#130
0#
#131
xe"
b1001100 ;
bx f"
bx l"
bx m"
xg"
bx k"
0@
b1000 8
1I"
b1001100 =
x,"
bx *"
bx a"
bx )"
bx _"
b0x >"
b0x d"
1^"
b1010101000001000 &
b1010101000001000 $"
b1010101000001000 8"
0<
0A
0>
0?
b1 B
b1 j"
0i"
0h"
b1010101000001000 6"
b111 &"
b1 ."
b0 H"
b1001100 )
b1001100 3
b1100 ["
b0 .
1"
1-
1#
#132
0#
#133
b1 .
1#
#134
0#
#135
b0 .
0"
0-
1#
#136
0#
#137
b1 .
1#
#138
0#
#139
b0 l"
0e"
b10 f"
b10 ;
b10 m"
0g"
b10 k"
b10 =
b1001 8
x@
0,"
b10 *"
b10 a"
b0 )"
b0 _"
b11 >"
b11 d"
0^"
b1 %
b1 /"
b1010101000001001 &
b1010101000001001 $"
07"
b1010101000001001 8"
b10 )
b10 3
b10 H"
0<"
0L"
0N"
b1001100 ."
b110100 :
0:"
b1 7
b1 2
b1000 &"
b1010101000001001 6"
x<
xA
x>
x?
bx B
bx j"
xi"
xh"
b10110 ["
b0 .
1"
1-
1#
#140
0#
#141
b1 .
1#
#142
0#
#143
b0 .
0"
0-
1#
#144
0#
#145
b1 .
1#
#146
0#
#147
b10101010 f"
b1010 l"
b1010 m"
b10101010 ;
b10101010 k"
b10101010 *"
b10101010 a"
0@
b10101010 =
b1010101000000010 &
b1010101000000010 $"
17"
b1010101000000010 8"
0<
0A
0>
0?
b10 B
b10 j"
0i"
0h"
b1001 &"
b10 ."
b0 H"
b10101010 )
b10101010 3
b10111 ["
b0 .
1"
1-
1#
#148
0#
#149
b1 .
1#
#150
0#
#151
b0 .
0"
0-
1#
#152
0#
#153
b1 .
1#
#154
0#
#155
xe"
b10001101 ;
bx f"
bx l"
bx m"
xg"
bx k"
b10001101 =
0I"
b11 8
0@
x,"
bx *"
bx a"
bx )"
bx _"
b0x >"
b0x d"
b1010101000000011 &
b1010101000000011 $"
b1010101000000011 8"
b10001101 )
b10001101 3
b101 H"
b10101010 ."
1@"
b10 &"
b1010101000000011 6"
1A
b10101010 B
b10101010 j"
1i"
b1100 ["
b0 .
1"
1-
1#
#156
0#
#157
b1 .
1#
#158
0#
#159
b0 .
0"
0-
1#
#160
0#
#161
b1 .
1#
#162
0#
#163
b0 l"
0e"
b0 f"
b0 ;
b0 m"
0g"
b0 k"
x@
b100 8
1I"
b0 =
0,"
b0 *"
b0 a"
b0 )"
b0 _"
b11 >"
b11 d"
b1010101000000100 &
b1010101000000100 $"
b1010101000000100 8"
x<
xA
x>
x?
bx B
bx j"
xi"
xh"
b1010101000000100 6"
b11 &"
b10001101 ."
1\"
b100 H"
b0 )
b0 3
b0 ["
b0 .
1"
1-
1#
#164
0#
#165
b1 .
1#
#166
0#
#167
b0 .
0"
0-
1#
#168
0#
#169
b1 .
1#
#170
0#
#171
xe"
b1000000 ;
bx f"
bx l"
bx m"
xg"
bx k"
b1000000 =
b101 8
0@
x,"
bx *"
bx a"
bx )"
bx _"
b0x >"
b0x d"
1$
b100000000000000 &
b100000000000000 $"
07"
b1010101000000101 8"
b1000000 )
b1000000 3
b0 H"
b0 ."
0@"
b100 &"
b1010101000000101 6"
0<
0A
0>
1?
b0 B
b0 j"
0i"
0h"
b1 ["
b0 .
1"
1-
1#
#172
0#
#173
b1 .
1#
#174
0#
#175
b0 .
0"
0-
1#
#176
0#
#177
b1 .
1#
#178
0#
#179
b100 l"
0e"
b1000001 f"
b1 m"
0g"
b1000000 k"
b1 n"
x@
0,"
b1000000 *"
b1000000 a"
b1 )"
b1 _"
b11 >"
b11 d"
0$
b1010101000000101 &
b1010101000000101 $"
17"
x<
xA
x>
x?
bx B
bx j"
xi"
xh"
b1000000 %"
b0 &"
b1000000 ."
b10 H"
b1 !
b1 /
b1101 ["
b0 .
1"
1-
1#
#180
0#
#181
b1 .
1#
#182
0#
#183
b0 .
0"
0-
1#
#184
0#
#185
b1 .
1#
#186
0#
#187
xe"
b1101001 ;
bx f"
bx l"
bx m"
xg"
bx k"
b1101001 =
b110 8
0@
x,"
bx *"
bx a"
bx )"
bx _"
b0x >"
b0x d"
b1010101000000110 &
b1010101000000110 $"
b1010101000000110 8"
b1101001 )
b1101001 3
b10101010 %"
b101 &"
b1010101000000110 6"
0<
0A
0>
0?
b1000001 B
b1000001 j"
0i"
0h"
b1100 ["
b0 .
1"
1-
1#
#188
0#
#189
b1 .
1#
#190
0#
#191
b0 .
0"
0-
1#
#192
0#
#193
b1 .
1#
#194
0#
#195
b0 l"
0e"
b10 f"
b1 ;
b10 m"
0g"
b1 k"
x@
b111 8
0I"
b1 =
0,"
b1 *"
b1 a"
b1 )"
b1 _"
b11 >"
b11 d"
b1010101000000111 &
b1010101000000111 $"
b1010101000000111 8"
x<
xA
x>
x?
bx B
bx j"
xi"
xh"
b1010101000000111 6"
b110 &"
b1101001 ."
1N"
1L"
0\"
1<"
b11 H"
b1 )
b1 3
b1101 ["
b0 .
1"
1-
1#
#196
0#
#197
b1 .
1#
#198
0#
#199
b0 .
0"
0-
1#
#200
0#
#201
b1 .
1#
#202
0#
#203
xe"
b1001100 ;
bx f"
bx l"
bx m"
xg"
bx k"
b1001100 =
1I"
b1000 8
0@
x,"
bx *"
bx a"
bx )"
bx _"
b0x >"
b0x d"
1^"
b1010101000001000 &
b1010101000001000 $"
b1010101000001000 8"
b1001100 )
b1001100 3
b0 H"
b1 ."
b111 &"
b1010101000001000 6"
0<
0A
0>
0?
b10 B
b10 j"
0i"
0h"
b1100 ["
b0 .
1"
1-
1#
#204
0#
#205
b1 .
1#
#206
0#
#207
b0 .
0"
0-
1#
#208
0#
#209
b1 .
1#
#210
0#
#211
b0 l"
0e"
b10 f"
b10 ;
b10 m"
0g"
b10 k"
b0 n"
x@
b1001 8
b10 =
0,"
b10 *"
b10 a"
b0 )"
b0 _"
b11 >"
b11 d"
0^"
b10 %
b10 /"
b1010101000001001 &
b1010101000001001 $"
07"
b1010101000001001 8"
x<
xA
x>
x?
bx B
bx j"
xi"
xh"
b1010101000001001 6"
b1000 &"
b10 7
b10 2
b1001100 ."
0N"
0L"
0<"
b10 H"
b10 )
b10 3
b10110 ["
b0 .
1"
1-
1#
#212
0#
#213
b1 .
1#
#214
0#
#215
b0 .
0"
0-
1#
#216
0#
#217
b1 .
1#
#218
0#
#219
b10101010 f"
b1010 l"
b1010 m"
b10101010 ;
b10101010 k"
b10101010 *"
b10101010 a"
b10101010 =
0@
b1010101000000010 &
b1010101000000010 $"
17"
b1010101000000010 8"
b10101010 )
b10101010 3
b0 H"
b10 ."
b1001 &"
0<
0A
0>
0?
b10 B
b10 j"
0i"
0h"
b10111 ["
b0 .
1"
1-
1#
#220
0#
#221
b1 .
1#
#222
0#
#223
b0 .
0"
0-
1#
#224
0#
#225
b1 .
1#
#226
0#
#227
xe"
b10001101 ;
bx f"
bx l"
bx m"
xg"
bx k"
0@
b11 8
0I"
b10001101 =
x,"
bx *"
bx a"
bx )"
bx _"
b0x >"
b0x d"
b1010101000000011 &
b1010101000000011 $"
b1010101000000011 8"
1A
b10101010 B
b10101010 j"
1i"
b1010101000000011 6"
b10 &"
1@"
b10101010 ."
b101 H"
b10001101 )
b10001101 3
b1100 ["
b0 .
1"
1-
1#
#228
0#
#229
b1 .
1#
#230
0#
#231
b0 .
0"
0-
1#
#232
0#
#233
b1 .
1#
#234
0#
#235
b0 l"
0e"
b0 f"
b0 ;
b0 m"
0g"
b0 k"
b0 =
1I"
b100 8
x@
0,"
b0 *"
b0 a"
b0 )"
b0 _"
b11 >"
b11 d"
b1010101000000100 &
b1010101000000100 $"
b1010101000000100 8"
b0 )
b0 3
b100 H"
1\"
b10001101 ."
b11 &"
b1010101000000100 6"
x<
xA
x>
x?
bx B
bx j"
xi"
xh"
b0 ["
b0 .
1"
1-
1#
#236
0#
#237
b1 .
1#
#238
0#
#239
b0 .
0"
0-
1#
#240
0#
#241
b1 .
1#
#242
0#
#243
xe"
b1000000 ;
bx f"
bx l"
bx m"
xg"
bx k"
0@
b101 8
b1000000 =
x,"
bx *"
bx a"
bx )"
bx _"
b0x >"
b0x d"
1$
b100000000000000 &
b100000000000000 $"
07"
b1010101000000101 8"
0<
0A
0>
1?
b0 B
b0 j"
0i"
0h"
b1010101000000101 6"
b100 &"
0@"
b0 ."
b0 H"
b1000000 )
b1000000 3
b1 ["
b0 .
1"
1-
1#
#244
0#
#245
b1 .
1#
#246
0#
#247
b0 .
0"
0-
1#
#248
0#
#249
b1 .
1#
#250
0#
#251
b100 l"
0e"
b1000010 f"
b10 m"
0g"
b1000000 k"
b10 n"
x@
0,"
b1000000 *"
b1000000 a"
b10 )"
b10 _"
b11 >"
b11 d"
0$
b1010101000000101 &
b1010101000000101 $"
17"
b10 !
b10 /
b10 H"
b1000000 ."
b1000000 %"
b0 &"
x<
xA
x>
x?
bx B
bx j"
xi"
xh"
b1101 ["
b0 .
1"
1-
1#
#252
0#
#253
b1 .
1#
#254
0#
#255
b0 .
0"
0-
1#
#256
0#
#257
b1 .
1#
#258
0#
#259
xe"
b1101001 ;
bx f"
bx l"
bx m"
xg"
bx k"
0@
b110 8
b1101001 =
x,"
bx *"
bx a"
bx )"
bx _"
b0x >"
b0x d"
b1010101000000110 &
b1010101000000110 $"
b1010101000000110 8"
0<
0A
0>
0?
b1000010 B
b1000010 j"
0i"
0h"
b1010101000000110 6"
b10101010 %"
b101 &"
b1101001 )
b1101001 3
b1100 ["
b0 .
1"
1-
1#
#260
0#
#261
b1 .
1#
#262
0#
#263
b0 .
0"
0-
1#
#264
0#
#265
b1 .
1#
#266
0#
#267
b0 l"
0e"
b11 f"
b1 ;
b11 m"
0g"
b1 k"
b1 =
0I"
b111 8
x@
0,"
b1 *"
b1 a"
b10 )"
b10 _"
b11 >"
b11 d"
b1010101000000111 &
b1010101000000111 $"
b1010101000000111 8"
b1 )
b1 3
b11 H"
1<"
0\"
1L"
1N"
b1101001 ."
b110 &"
b1010101000000111 6"
x<
xA
x>
x?
bx B
bx j"
xi"
xh"
b1101 ["
b0 .
1"
1-
1#
#268
0#
#269
b1 .
1#
#270
0#
#271
b0 .
0"
0-
1#
#272
0#
#273
b1 .
1#
#274
0#
#275
xe"
b1001100 ;
bx f"
bx l"
bx m"
xg"
bx k"
0@
b1000 8
1I"
b1001100 =
x,"
bx *"
bx a"
bx )"
bx _"
b0x >"
b0x d"
1^"
b1010101000001000 &
b1010101000001000 $"
b1010101000001000 8"
0<
0A
0>
0?
b11 B
b11 j"
0i"
0h"
b1010101000001000 6"
b111 &"
b1 ."
b0 H"
b1001100 )
b1001100 3
b1100 ["
b0 .
1"
1-
1#
#276
0#
#277
b1 .
1#
#278
0#
#279
b0 .
0"
0-
1#
#280
0#
#281
b1 .
1#
#282
0#
#283
b0 l"
0e"
b10 f"
b10 ;
b10 m"
0g"
b10 k"
b0 n"
b10 =
b1001 8
x@
0,"
b10 *"
b10 a"
b0 )"
b0 _"
b11 >"
b11 d"
0^"
b11 %
b11 /"
b1010101000001001 &
b1010101000001001 $"
07"
b1010101000001001 8"
b10 )
b10 3
b10 H"
0<"
0L"
0N"
b1001100 ."
b11 7
b11 2
b1000 &"
b1010101000001001 6"
x<
xA
x>
x?
bx B
bx j"
xi"
xh"
b10110 ["
b0 .
1"
1-
1#
#284
0#
#285
b1 .
1#
#286
0#
#287
b0 .
0"
0-
1#
#288
0#
#289
b1 .
1#
#290
0#
#291
b10101010 f"
b1010 l"
b1010 m"
b10101010 ;
b10101010 k"
b10101010 *"
b10101010 a"
0@
b10101010 =
b1010101000000010 &
b1010101000000010 $"
17"
b1010101000000010 8"
0<
0A
0>
0?
b10 B
b10 j"
0i"
0h"
b1001 &"
b10 ."
b0 H"
b10101010 )
b10101010 3
b10111 ["
b0 .
1"
1-
1#
#292
0#
#293
b1 .
1#
#294
0#
#295
b0 .
0"
0-
1#
#296
0#
#297
b1 .
1#
#298
0#
#299
xe"
b10001101 ;
bx f"
bx l"
bx m"
xg"
bx k"
b10001101 =
0I"
b11 8
0@
x,"
bx *"
bx a"
bx )"
bx _"
b0x >"
b0x d"
b1010101000000011 &
b1010101000000011 $"
b1010101000000011 8"
b10001101 )
b10001101 3
b101 H"
b10101010 ."
1@"
b10 &"
b1010101000000011 6"
1A
b10101010 B
b10101010 j"
1i"
b1100 ["
b0 .
1"
1-
1#
#300
0#
#301
b1 .
1#
#302
0#
#303
b0 .
0"
0-
1#
#304
0#
#305
b1 .
1#
#306
0#
#307
b0 l"
0e"
b0 f"
b0 ;
b0 m"
0g"
b0 k"
x@
b100 8
1I"
b0 =
0,"
b0 *"
b0 a"
b0 )"
b0 _"
b11 >"
b11 d"
b1010101000000100 &
b1010101000000100 $"
b1010101000000100 8"
x<
xA
x>
x?
bx B
bx j"
xi"
xh"
b1010101000000100 6"
b11 &"
b10001101 ."
1\"
b100 H"
b0 )
b0 3
b0 ["
b0 .
1"
1-
1#
#308
0#
#309
b1 .
1#
#310
0#
#311
b0 .
0"
0-
1#
#312
0#
#313
b1 .
1#
#314
0#
#315
xe"
b1000000 ;
bx f"
bx l"
bx m"
xg"
bx k"
b1000000 =
b101 8
0@
x,"
bx *"
bx a"
bx )"
bx _"
b0x >"
b0x d"
1$
b100000000000000 &
b100000000000000 $"
07"
b1010101000000101 8"
b1000000 )
b1000000 3
b0 H"
b0 ."
0@"
b100 &"
b1010101000000101 6"
0<
0A
0>
1?
b0 B
b0 j"
0i"
0h"
b1 ["
b0 .
1"
1-
1#
#316
0#
#317
b1 .
1#
#318
0#
#319
b0 .
0"
0-
1#
#320
0#
#321
b1 .
1#
#322
0#
#323
b100 l"
0e"
b1000011 f"
b11 m"
0g"
b1000000 k"
b11 n"
x@
0,"
b1000000 *"
b1000000 a"
b11 )"
b11 _"
b11 >"
b11 d"
0$
b1010101000000101 &
b1010101000000101 $"
17"
x<
xA
x>
x?
bx B
bx j"
xi"
xh"
b1000000 %"
b0 &"
b1000000 ."
b10 H"
b11 !
b11 /
b1101 ["
b0 .
1"
1-
1#
