6502_test/6502_test.vcd
$date
	Mon Jul  8 20:39:53 2024
$end
$version
	Icarus Verilog
$end
$timescale
	1s
$end
$scope module test $end
$var wire 6 ! led [5:0] $end
$var wire 1 " clk_cpu $end
$var reg 1 # clk $end
$scope module system_6502 $end
$var wire 1 # clk $end
$var wire 1 " clk_o $end
$var wire 1 $ WE $end
$var wire 8 % DO [7:0] $end
$var wire 16 & AB [15:0] $end
$var parameter 32 ' CLKDIV $end
$var parameter 32 ( reset_del $end
$var reg 8 ) DI [7:0] $end
$var reg 1 * IRQ $end
$var reg 1 + NMI $end
$var reg 1 , RDY $end
$var reg 1 - clk_cpu $end
$var reg 24 . counter [23:0] $end
$var reg 6 / led [5:0] $end
$var reg 1 0 reset $end
$var reg 8 1 reset_cntr [7:0] $end
$var integer 32 2 i [31:0] $end
$scope module my_6502 $end
$var wire 8 3 A [7:0] $end
$var wire 8 4 DI [7:0] $end
$var wire 1 * IRQ $end
$var wire 1 + NMI $end
$var wire 1 , RDY $end
$var wire 8 5 S [7:0] $end
$var wire 8 6 X [7:0] $end
$var wire 8 7 Y [7:0] $end
$var wire 1 - clk $end
$var wire 8 8 regfile [7:0] $end
$var wire 1 0 reset $end
$var wire 8 9 PCL [7:0] $end
$var wire 8 : PCH [7:0] $end
$var wire 8 ; P [7:0] $end
$var wire 8 < IR [7:0] $end
$var wire 1 = HC $end
$var wire 8 > DIMUX [7:0] $end
$var wire 1 ? CO $end
$var wire 1 @ AZ $end
$var wire 1 A AV $end
$var wire 1 B AN $end
$var wire 8 C ADD [7:0] $end
$var parameter 6 D ABS0 $end
$var parameter 6 E ABS1 $end
$var parameter 6 F ABSX0 $end
$var parameter 6 G ABSX1 $end
$var parameter 6 H ABSX2 $end
$var parameter 6 I BRA0 $end
$var parameter 6 J BRA1 $end
$var parameter 6 K BRA2 $end
$var parameter 6 L BRK0 $end
$var parameter 6 M BRK1 $end
$var parameter 6 N BRK2 $end
$var parameter 6 O BRK3 $end
$var parameter 6 P DECODE $end
$var parameter 6 Q FETCH $end
$var parameter 6 R INDX0 $end
$var parameter 6 S INDX1 $end
$var parameter 6 T INDX2 $end
$var parameter 6 U INDX3 $end
$var parameter 6 V INDY0 $end
$var parameter 6 W INDY1 $end
$var parameter 6 X INDY2 $end
$var parameter 6 Y INDY3 $end
$var parameter 6 Z JMP0 $end
$var parameter 6 [ JMP1 $end
$var parameter 6 \ JMPI0 $end
$var parameter 6 ] JMPI1 $end
$var parameter 6 ^ JSR0 $end
$var parameter 6 _ JSR1 $end
$var parameter 6 ` JSR2 $end
$var parameter 6 a JSR3 $end
$var parameter 4 b OP_A $end
$var parameter 4 c OP_ADD $end
$var parameter 4 d OP_AND $end
$var parameter 4 e OP_EOR $end
$var parameter 4 f OP_OR $end
$var parameter 4 g OP_ROL $end
$var parameter 4 h OP_SUB $end
$var parameter 6 i PULL0 $end
$var parameter 6 j PULL1 $end
$var parameter 6 k PULL2 $end
$var parameter 6 l PUSH0 $end
$var parameter 6 m PUSH1 $end
$var parameter 6 n READ $end
$var parameter 6 o REG $end
$var parameter 6 p RTI0 $end
$var parameter 6 q RTI1 $end
$var parameter 6 r RTI2 $end
$var parameter 6 s RTI3 $end
$var parameter 6 t RTI4 $end
$var parameter 6 u RTS0 $end
$var parameter 6 v RTS1 $end
$var parameter 6 w RTS2 $end
$var parameter 6 x RTS3 $end
$var parameter 2 y SEL_A $end
$var parameter 2 z SEL_S $end
$var parameter 2 { SEL_X $end
$var parameter 2 | SEL_Y $end
$var parameter 8 } STACKPAGE $end
$var parameter 6 ~ WRITE $end
$var parameter 8 !" ZEROPAGE $end
$var parameter 6 "" ZP0 $end
$var parameter 6 #" ZPX0 $end
$var parameter 6 $" ZPX1 $end
$var reg 16 %" AB [15:0] $end
$var reg 8 &" ABH [7:0] $end
$var reg 8 '" ABL [7:0] $end
$var reg 4 (" ADJH [3:0] $end
$var reg 4 )" ADJL [3:0] $end
$var reg 8 *" AI [7:0] $end
$var reg 8 +" BI [7:0] $end
$var reg 1 ," C $end
$var reg 1 -" CI $end
$var reg 1 ." D $end
$var reg 8 /" DIHOLD [7:0] $end
$var reg 8 0" DO [7:0] $end
$var reg 1 1" I $end
$var reg 8 2" IRHOLD [7:0] $end
$var reg 1 3" IRHOLD_valid $end
$var reg 1 4" N $end
$var reg 1 5" NMI_1 $end
$var reg 1 6" NMI_edge $end
$var reg 16 7" PC [15:0] $end
$var reg 1 8" PC_inc $end
$var reg 16 9" PC_temp [15:0] $end
$var reg 1 :" V $end
$var reg 1 $ WE $end
$var reg 1 ;" Z $end
$var reg 1 <" adc_bcd $end
$var reg 1 =" adc_sbc $end
$var reg 1 >" adj_bcd $end
$var reg 4 ?" alu_op [3:0] $end
$var reg 1 @" alu_shift_right $end
$var reg 1 A" backwards $end
$var reg 1 B" bit_ins $end
$var reg 1 C" brk $end
$var reg 1 D" clc $end
$var reg 1 E" cld $end
$var reg 1 F" cli $end
$var reg 1 G" clv $end
$var reg 1 H" compare $end
$var reg 3 I" cond_code [2:0] $end
$var reg 1 J" cond_true $end
$var reg 2 K" dst_reg [1:0] $end
$var reg 1 L" inc $end
$var reg 1 M" index_y $end
$var reg 1 N" load_only $end
$var reg 1 O" load_reg $end
$var reg 4 P" op [3:0] $end
$var reg 1 Q" php $end
$var reg 1 R" plp $end
$var reg 2 S" regsel [1:0] $end
$var reg 1 T" res $end
$var reg 1 U" rotate $end
$var reg 1 V" sec $end
$var reg 1 W" sed $end
$var reg 1 X" sei $end
$var reg 1 Y" shift $end
$var reg 1 Z" shift_right $end
$var reg 2 [" src_reg [1:0] $end
$var reg 6 \" state [5:0] $end
$var reg 1 ]" store $end
$var reg 1 ^" write_back $end
$var reg 1 _" write_register $end
$scope module ALU $end
$var wire 8 `" AI [7:0] $end
$var wire 1 a" BCD $end
$var wire 8 b" BI [7:0] $end
$var wire 1 -" CI $end
$var wire 1 c" CO9 $end
$var wire 1 d" HC9 $end
$var wire 1 , RDY $end
$var wire 1 A V $end
$var wire 1 - clk $end
$var wire 4 e" op [3:0] $end
$var wire 1 @" right $end
$var wire 1 f" temp_HC $end
$var wire 9 g" temp [8:0] $end
$var wire 1 h" adder_CI $end
$var wire 1 @ Z $end
$var reg 1 i" AI7 $end
$var reg 1 j" BI7 $end
$var reg 1 ? CO $end
$var reg 1 = HC $end
$var reg 1 B N $end
$var reg 8 k" OUT [7:0] $end
$var reg 8 l" temp_BI [7:0] $end
$var reg 5 m" temp_h [4:0] $end
$var reg 5 n" temp_l [4:0] $end
$var reg 9 o" temp_logic [8:0] $end
$upscope $end
$upscope $end
$upscope $end
$upscope $end
$enddefinitions $end
$comment Show the parameter values. $end
$dumpall
b110001 $"
b110000 #"
b101111 ""
b0 !"
b101110 ~
b1 }
b11 |
b10 {
b1 z
b0 y
b101101 x
b101100 w
b101011 v
b101010 u
b101001 t
b101000 s
b100111 r
b100110 q
b100101 p
b100100 o
b100011 n
b100010 m
b100001 l
b100000 k
b11111 j
b11110 i
b111 h
b1011 g
b1100 f
b1110 e
b1101 d
b11 c
b1111 b
b11101 a
b11100 `
b11011 _
b11010 ^
b11001 ]
b11000 \
b10111 [
b10110 Z
b10101 Y
b10100 X
b10011 W
b10010 V
b10001 U
b10000 T
b1111 S
b1110 R
b1101 Q
b1100 P
b1011 O
b1010 N
b1001 M
b1000 L
b111 K
b110 J
b101 I
b100 H
b11 G
b10 F
b1 E
b0 D
b10 (
b1 '
$end
#0
$dumpvars
b0xxxxxxxx o"
bx n"
bx m"
b11111111 l"
bx k"
xj"
xi"
0h"
bx g"
xf"
b111 e"
0d"
0c"
b0 b"
0a"
bx `"
0_"
x^"
x]"
b1000 \"
bx ["
xZ"
xY"
xX"
xW"
xV"
xU"
xT"
b1 S"
xR"
xQ"
bx P"
xO"
xN"
xM"
xL"
bx K"
xJ"
bx I"
xH"
xG"
xF"
xE"
xD"
xC"
xB"
xA"
0@"
b111 ?"
x>"
x="
x<"
0;"
0:"
bx 9"
08"
bx 7"
06"
05"
04"
x3"
bx 2"
01"
bx 0"
bx /"
0."
0-"
0,"
b0 +"
bx *"
bx )"
bx ("
bx '"
bx &"
b1xxxxxxxx %"
bx C
xB
xA
x@
x?
bx >
x=
bx <
b110000 ;
bx :
bx 9
bx 8
bx 7
bx 6
bx 5
bx 4
bx 3
b1000000000 2
b0 1
10
bx /
b0 .
0-
1,
0+
0*
bx )
b1xxxxxxxx &
bx %
1$
0#
0"
bx !
$end
#1
b1 .
1#
#2
0#
#3
b0 ("
b0 )"
1j"
b1 &"
0>"
03"
1T"
1="
0<"
b1 1
b0 .
1"
1-
1#
#4
0#
#5
b1 .
1#
#6
0#
#7
b0 .
0"
0-
1#
#8
0#
#9
b1 .
1#
#10
0#
#11
b10 1
b0 .
1"
1-
1#
#12
0#
#13
b1 .
1#
#14
0#
#15
b0 .
0"
0-
1#
#16
0#
#17
b1 .
1#
#18
0#
#19
b11 1
b0 .
00
1"
1-
1#
#20
0#
#21
b1 .
1#
#22
0#
#23
b0 .
0"
0-
1#
#24
0#
#25
b1 .
1#
#26
0#
#27
bx S"
b1001 \"
b0 .
1"
1-
1#
#28
0#
#29
b1 .
1#
#30
0#
#31
b0 .
0"
0-
1#
#32
0#
#33
b1 .
1#
#34
0#
#35
b110000 %
b110000 0"
b1111111111111100 9"
b1010 \"
b0 .
1"
1-
1#
#36
0#
#37
b1 .
1#
#38
0#
#39
b0 .
0"
0-
1#
#40
0#
#41
b1 .
1#
#42
0#
#43
bx l"
b0 o"
b11111111 :
b11111100 9
bx +"
bx b"
b0 *"
b0 `"
b11 ?"
b11 e"
b1 S"
1_"
0$
bx %
bx 0"
b1111111111111100 &
b1111111111111100 %"
18"
b1111111111111100 7"
b1011 \"
b0 .
1"
1-
1#
#44
0#
#45
b1 .
1#
#46
0#
#47
b0 .
0"
0-
1#
#48
0#
#49
b1 .
1#
#50
0#
#51
b0 m"
0f"
b0 g"
b0 n"
b0 <
b0 l"
b0 +"
b0 b"
b11111101 9
b0 >
bx S"
0_"
b1111111111111101 &
b1111111111111101 %"
08"
b1111111111111101 9"
xj"
0i"
b1111111111111101 7"
b11111111 &"
b11111100 '"
b110100 ;
11"
b0 )
b0 4
b10110 \"
b0 .
1"
1-
1#
#52
0#
#53
b1 .
1#
#54
0#
#55
b0 .
0"
0-
1#
#56
0#
#57
b1 .
1#
#58
0#
#59
b10101010 g"
b1010 m"
b1010 n"
b10101010 <
b10101010 l"
b10101010 +"
b10101010 b"
b10101010 >
1J"
0A
b1010101000000000 &
b1010101000000000 %"
18"
b1010101000000000 9"
b10101010 )
b10101010 4
b0 I"
b0 /"
0A"
b11111101 '"
0=
0B
0?
1@
b0 C
b0 k"
0j"
b10111 \"
b0 .
1"
1-
1#
#60
0#
#61
b1 .
1#
#62
0#
#63
b0 .
0"
0-
1#
#64
0#
#65
b1 .
1#
#66
0#
#67
xf"
b10101001 <
bx g"
bx m"
bx n"
xh"
bx l"
0A
b10101010 :
b1 9
0J"
b10101001 >
x-"
bx +"
bx b"
bx *"
bx `"
b0x ?"
b0x e"
x_"
b1010101000000001 &
b1010101000000001 %"
b1010101000000001 9"
1B
0@
b10101010 C
b10101010 k"
1j"
b1010101000000001 7"
b10101010 &"
b0 '"
1A"
b10101010 /"
b101 I"
b10101001 )
b10101001 4
b1100 \"
b0 .
1"
1-
1#
#68
0#
#69
b1 .
1#
#70
0#
#71
b0 .
0"
0-
1#
#72
0#
#73
b1 .
1#
#74
0#
#75
b0 m"
0f"
b0 g"
b0 <
b0 n"
0h"
b0 l"
b0 >
b10 9
xA
0-"
b0 +"
b0 b"
b0 *"
b0 `"
b11 ?"
b11 e"
b0 S"
0_"
b1010101000000010 &
b1010101000000010 %"
b1010101000000010 9"
b0 )
b0 4
0C"
0W"
0E"
0G"
0X"
0F"
0V"
0R"
0D"
0Q"
0B"
b11 P"
0U"
0Z"
0H"
0Y"
0="
0L"
1N"
0^"
0]"
1M"
b0 ["
b0 K"
1O"
0T"
b10101001 /"
b1 '"
b1010101000000010 7"
x=
xB
x?
x@
bx C
bx k"
xj"
xi"
b1101 \"
b0 .
1"
1-
1#
#76
0#
#77
b1 .
1#
#78
0#
#79
b0 .
0"
0-
1#
#80
0#
#81
b1 .
1#
#82
0#
#83
xf"
b10001101 <
bx g"
bx m"
bx n"
xh"
bx l"
0A
b11 9
1J"
b10001101 >
x-"
bx +"
bx b"
bx *"
bx `"
b0x ?"
b0x e"
1_"
b1010101000000011 &
b1010101000000011 %"
b1010101000000011 9"
0=
0B
0?
1@
b0 C
b0 k"
0j"
0i"
b1010101000000011 7"
b10 '"
0A"
b0 /"
b0 I"
b10001101 )
b10001101 4
b1100 \"
b0 .
1"
1-
1#
#84
0#
#85
b1 .
1#
#86
0#
#87
b0 .
0"
0-
1#
#88
0#
#89
b1 .
1#
#90
0#
#91
b0 m"
0f"
b0 g"
b0 <
b0 n"
0h"
b0 l"
b0 >
b100 9
xA
0-"
b0 +"
b0 b"
b0 *"
b0 `"
b11 ?"
b11 e"
0_"
b0 %
b0 0"
b1010101000000100 &
b1010101000000100 %"
b1010101000000100 9"
b0 )
b0 4
b100 I"
0N"
1]"
0M"
0O"
b10001101 /"
b110110 ;
1;"
1A"
b0 8
b0 3
b11 '"
b1010101000000100 7"
x=
xB
x?
x@
bx C
bx k"
xj"
xi"
b0 \"
b0 .
1"
1-
1#
#92
0#
#93
b1 .
1#
#94
0#
#95
b0 .
0"
0-
1#
#96
0#
#97
b1 .
1#
#98
0#
#99
xf"
b1000000 <
bx g"
bx m"
bx n"
xh"
bx l"
0A
b101 9
b1000000 >
x-"
bx +"
bx b"
bx *"
bx `"
b0x ?"
b0x e"
1$
b100000000000000 &
b100000000000000 %"
08"
b1010101000000101 9"
0=
0B
0?
1@
b0 C
b0 k"
0j"
0i"
b1010101000000101 7"
b100 '"
0A"
b0 /"
b0 I"
b1000000 )
b1000000 4
b1 \"
b0 .
1"
1-
1#
#100
0#
#101
b1 .
1#
#102
0#
#103
b0 .
0"
0-
1#
#104
0#
#105
b1 .
1#
#106
0#
#107
b100 m"
0f"
b1000000 g"
b0 n"
0h"
b1000000 l"
xA
0-"
b1000000 +"
b1000000 b"
b0 *"
b0 `"
b11 ?"
b11 e"
0$
b1010101000000101 &
b1010101000000101 %"
18"
b111111 !
b111111 /
b10 I"
b1000000 /"
b1000000 &"
b0 '"
x=
xB
x?
x@
bx C
bx k"
xj"
xi"
b1101 \"
b0 .
1"
1-
1#
#108
0#
#109
b1 .
1#
#110
0#
#111
b0 .
0"
0-
1#
#112
0#
#113
b1 .
1#
#114
0#
#115
xf"
b1101001 <
bx g"
bx m"
bx n"
xh"
bx l"
0A
b110 9
b1101001 >
x-"
bx +"
bx b"
bx *"
bx `"
b0x ?"
b0x e"
b1010101000000110 &
b1010101000000110 %"
b1010101000000110 9"
0=
0B
0?
0@
b1000000 C
b1000000 k"
0j"
0i"
b1010101000000110 7"
b10101010 &"
b101 '"
b1101001 )
b1101001 4
b1100 \"
b0 .
1"
1-
1#
#116
0#
#117
b1 .
1#
#118
0#
#119
b0 .
0"
0-
1#
#120
0#
#121
b1 .
1#
#122
0#
#123
b0 m"
0f"
b1 g"
b1 <
b1 n"
0h"
b1 l"
b1 >
0J"
b111 9
xA
0-"
b1 +"
b1 b"
b0 *"
b0 `"
b11 ?"
b11 e"
b1010101000000111 &
b1010101000000111 %"
b1010101000000111 9"
b1 )
b1 4
b11 I"
1="
0]"
1M"
1O"
b1101001 /"
b110 '"
b1010101000000111 7"
x=
xB
x?
x@
bx C
bx k"
xj"
xi"
b1101 \"
b0 .
1"
1-
1#
#124
0#
#125
b1 .
1#
#126
0#
#127
b0 .
0"
0-
1#
#128
0#
#129
b1 .
1#
#130
0#
#131
xf"
b1001100 <
bx g"
bx m"
bx n"
xh"
bx l"
0A
b1000 9
1J"
b1001100 >
x-"
bx +"
bx b"
bx *"
bx `"
b0x ?"
b0x e"
1_"
b1010101000001000 &
b1010101000001000 %"
b1010101000001000 9"
0=
0B
0?
0@
b1 C
b1 k"
0j"
0i"
b1010101000001000 7"
b111 '"
b1 /"
b0 I"
b1001100 )
b1001100 4
b1100 \"
b0 .
1"
1-
1#
#132
0#
#133
b1 .
1#
#134
0#
#135
b0 .
0"
0-
1#
#136
0#
#137
b1 .
1#
#138
0#
#139
b0 m"
0f"
b10 g"
b10 <
b10 n"
0h"
b10 l"
b10 >
b1001 9
xA
0-"
b10 +"
b10 b"
b0 *"
b0 `"
b11 ?"
b11 e"
0_"
b1 %
b1 0"
b1010101000001001 &
b1010101000001001 %"
08"
b1010101000001001 9"
b10 )
b10 4
b10 I"
0="
0M"
0O"
b1001100 /"
b110100 ;
0;"
b1 8
b1 3
b1000 '"
b1010101000001001 7"
x=
xB
x?
x@
bx C
bx k"
xj"
xi"
b10110 \"
b0 .
1"
1-
1#
#140
0#
#141
b1 .
1#
#142
0#
#143
b0 .
0"
0-
1#
#144
0#
#145
b1 .
1#
#146
0#
#147
b10101010 g"
b1010 m"
b1010 n"
b10101010 <
b10101010 l"
b10101010 +"
b10101010 b"
0A
b10101010 >
b1010101000000010 &
b1010101000000010 %"
18"
b1010101000000010 9"
0=
0B
0?
0@
b10 C
b10 k"
0j"
0i"
b1001 '"
b10 /"
b0 I"
b10101010 )
b10101010 4
b10111 \"
b0 .
1"
1-
1#
#148
0#
#149
b1 .
1#
#150
0#
#151
b0 .
0"
0-
1#
#152
0#
#153
b1 .
1#
#154
0#
#155
xf"
b10001101 <
bx g"
bx m"
bx n"
xh"
bx l"
b10001101 >
0J"
b11 9
0A
x-"
bx +"
bx b"
bx *"
bx `"
b0x ?"
b0x e"
b1010101000000011 &
b1010101000000011 %"
b1010101000000011 9"
b10001101 )
b10001101 4
b101 I"
b10101010 /"
1A"
b10 '"
b1010101000000011 7"
1B
b10101010 C
b10101010 k"
1j"
b1100 \"
b0 .
1"
1-
1#
#156
0#
#157
b1 .
1#
#158
0#
#159
b0 .
0"
0-
1#
#160
0#
#161
b1 .
1#
#162
0#
#163
b0 m"
0f"
b0 g"
b0 <
b0 n"
0h"
b0 l"
xA
b100 9
1J"
b0 >
0-"
b0 +"
b0 b"
b0 *"
b0 `"
b11 ?"
b11 e"
b1010101000000100 &
b1010101000000100 %"
b1010101000000100 9"
x=
xB
x?
x@
bx C
bx k"
xj"
xi"
b1010101000000100 7"
b11 '"
b10001101 /"
1]"
b100 I"
b0 )
b0 4
b0 \"
b0 .
1"
1-
1#
#164
0#
#165
b1 .
1#
#166
0#
#167
b0 .
0"
0-
1#
#168
0#
#169
b1 .
1#
#170
0#
#171
xf"
b1000000 <
bx g"
bx m"
bx n"
xh"
bx l"
b1000000 >
b101 9
0A
x-"
bx +"
bx b"
bx *"
bx `"
b0x ?"
b0x e"
1$
b100000000000000 &
b100000000000000 %"
08"
b1010101000000101 9"
b1000000 )
b1000000 4
b0 I"
b0 /"
0A"
b100 '"
b1010101000000101 7"
0=
0B
0?
1@
b0 C
b0 k"
0j"
0i"
b1 \"
b0 .
1"
1-
1#
#172
0#
#173
b1 .
1#
#174
0#
#175
b0 .
0"
0-
1#
#176
0#
#177
b1 .
1#
#178
0#
#179
b100 m"
0f"
b1000001 g"
b1 n"
0h"
b1000000 l"
b1 o"
xA
0-"
b1000000 +"
b1000000 b"
b1 *"
b1 `"
b11 ?"
b11 e"
0$
b1010101000000101 &
b1010101000000101 %"
18"
x=
xB
x?
x@
bx C
bx k"
xj"
xi"
b1000000 &"
b0 '"
b1000000 /"
b10 I"
b111110 !
b111110 /
b1101 \"
b0 .
1"
1-
1#
#180
0#
#181
b1 .
1#
#182
0#
#183
b0 .
0"
0-
1#
#184
0#
#185
b1 .
1#
#186
0#
#187
xf"
b1101001 <
bx g"
bx m"
bx n"
xh"
bx l"
b1101001 >
b110 9
0A
x-"
bx +"
bx b"
bx *"
bx `"
b0x ?"
b0x e"
b1010101000000110 &
b1010101000000110 %"
b1010101000000110 9"
b1101001 )
b1101001 4
b10101010 &"
b101 '"
b1010101000000110 7"
0=
0B
0?
0@
b1000001 C
b1000001 k"
0j"
0i"
b1100 \"
b0 .
1"
1-
1#
#188
0#
#189
b1 .
1#
#190
0#
#191
b0 .
0"
0-
1#
#192
0#
#193
b1 .
1#
#194
0#
#195
b0 m"
0f"
b10 g"
b1 <
b10 n"
0h"
b1 l"
xA
b111 9
0J"
b1 >
0-"
b1 +"
b1 b"
b1 *"
b1 `"
b11 ?"
b11 e"
b1010101000000111 &
b1010101000000111 %"
b1010101000000111 9"
x=
xB
x?
x@
bx C
bx k"
xj"
xi"
b1010101000000111 7"
b110 '"
b1101001 /"
1O"
1M"
0]"
1="
b11 I"
b1 )
b1 4
b1101 \"
b0 .
1"
1-
1#
#196
0#
#197
b1 .
1#
#198
0#
#199
b0 .
0"
0-
1#
#200
0#
#201
b1 .
1#
#202
0#
#203
xf"
b1001100 <
bx g"
bx m"
bx n"
xh"
bx l"
b1001100 >
1J"
b1000 9
0A
x-"
bx +"
bx b"
bx *"
bx `"
b0x ?"
b0x e"
1_"
b1010101000001000 &
b1010101000001000 %"
b1010101000001000 9"
b1001100 )
b1001100 4
b0 I"
b1 /"
b111 '"
b1010101000001000 7"
0=
0B
0?
0@
b10 C
b10 k"
0j"
0i"
b1100 \"
b0 .
1"
1-
1#
#204
0#
#205
b1 .
1#
#206
0#
#207
b0 .
0"
0-
1#
#208
0#
#209
b1 .
1#
#210
0#
#211
b0 m"
0f"
b10 g"
b10 <
b10 n"
0h"
b10 l"
b0 o"
xA
b1001 9
b10 >
0-"
b10 +"
b10 b"
b0 *"
b0 `"
b11 ?"
b11 e"
0_"
b10 %
b10 0"
b1010101000001001 &
b1010101000001001 %"
08"
b1010101000001001 9"
x=
xB
x?
x@
bx C
bx k"
xj"
xi"
b1010101000001001 7"
b1000 '"
b10 8
b10 3
b1001100 /"
0O"
0M"
0="
b10 I"
b10 )
b10 4
b10110 \"
b0 .
1"
1-
1#
#212
0#
#213
b1 .
1#
#214
0#
#215
b0 .
0"
0-
1#
#216
0#
#217
b1 .
1#
#218
0#
#219
b10101010 g"
b1010 m"
b1010 n"
b10101010 <
b10101010 l"
b10101010 +"
b10101010 b"
b10101010 >
0A
b1010101000000010 &
b1010101000000010 %"
18"
b1010101000000010 9"
b10101010 )
b10101010 4
b0 I"
b10 /"
b1001 '"
0=
0B
0?
0@
b10 C
b10 k"
0j"
0i"
b10111 \"
b0 .
1"
1-
1#
#220
0#
#221
b1 .
1#
#222
0#
#223
b0 .
0"
0-
1#
#224
0#
#225
b1 .
1#
#226
0#
#227
xf"
b10001101 <
bx g"
bx m"
bx n"
xh"
bx l"
0A
b11 9
0J"
b10001101 >
x-"
bx +"
bx b"
bx *"
bx `"
b0x ?"
b0x e"
b1010101000000011 &
b1010101000000011 %"
b1010101000000011 9"
1B
b10101010 C
b10101010 k"
1j"
b1010101000000011 7"
b10 '"
1A"
b10101010 /"
b101 I"
b10001101 )
b10001101 4
b1100 \"
b0 .
1"
1-
1#
#228
0#
#229
b1 .
1#
#230
0#
#231
b0 .
0"
0-
1#
#232
0#
#233
b1 .
1#
#234
0#
#235
b0 m"
0f"
b0 g"
b0 <
b0 n"
0h"
b0 l"
b0 >
1J"
b100 9
xA
0-"
b0 +"
b0 b"
b0 *"
b0 `"
b11 ?"
b11 e"
b1010101000000100 &
b1010101000000100 %"
b1010101000000100 9"
b0 )
b0 4
b100 I"
1]"
b10001101 /"
b11 '"
b1010101000000100 7"
x=
xB
x?
x@
bx C
bx k"
xj"
xi"
b0 \"
b0 .
1"
1-
1#
#236
0#
#237
b1 .
1#
#238
0#
#239
b0 .
0"
0-
1#
#240
0#
#241
b1 .
1#
#242
0#
#243
xf"
b1000000 <
bx g"
bx m"
bx n"
xh"
bx l"
0A
b101 9
b1000000 >
x-"
bx +"
bx b"
bx *"
bx `"
b0x ?"
b0x e"
1$
b100000000000000 &
b100000000000000 %"
08"
b1010101000000101 9"
0=
0B
0?
1@
b0 C
b0 k"
0j"
0i"
b1010101000000101 7"
b100 '"
0A"
b0 /"
b0 I"
b1000000 )
b1000000 4
b1 \"
b0 .
1"
1-
1#
#244
0#
#245
b1 .
1#
#246
0#
#247
b0 .
0"
0-
1#
#248
0#
#249
b1 .
1#
#250
0#
#251
b100 m"
0f"
b1000010 g"
b10 n"
0h"
b1000000 l"
b10 o"
xA
0-"
b1000000 +"
b1000000 b"
b10 *"
b10 `"
b11 ?"
b11 e"
0$
b1010101000000101 &
b1010101000000101 %"
18"
b111101 !
b111101 /
b10 I"
b1000000 /"
b1000000 &"
b0 '"
x=
xB
x?
x@
bx C
bx k"
xj"
xi"
b1101 \"
b0 .
1"
1-
1#
#252
0#
#253
b1 .
1#
#254
0#
#255
b0 .
0"
0-
1#
#256
0#
#257
b1 .
1#
#258
0#
#259
xf"
b1101001 <
bx g"
bx m"
bx n"
xh"
bx l"
0A
b110 9
b1101001 >
x-"
bx +"
bx b"
bx *"
bx `"
b0x ?"
b0x e"
b1010101000000110 &
b1010101000000110 %"
b1010101000000110 9"
0=
0B
0?
0@
b1000010 C
b1000010 k"
0j"
0i"
b1010101000000110 7"
b10101010 &"
b101 '"
b1101001 )
b1101001 4
b1100 \"
b0 .
1"
1-
1#
#260
0#
#261
b1 .
1#
#262
0#
#263
b0 .
0"
0-
1#
#264
0#
#265
b1 .
1#
#266
0#
#267
b0 m"
0f"
b11 g"
b1 <
b11 n"
0h"
b1 l"
b1 >
0J"
b111 9
xA
0-"
b1 +"
b1 b"
b10 *"
b10 `"
b11 ?"
b11 e"
b1010101000000111 &
b1010101000000111 %"
b1010101000000111 9"
b1 )
b1 4
b11 I"
1="
0]"
1M"
1O"
b1101001 /"
b110 '"
b1010101000000111 7"
x=
xB
x?
x@
bx C
bx k"
xj"
xi"
b1101 \"
b0 .
1"
1-
1#
#268
0#
#269
b1 .
1#
#270
0#
#271
b0 .
0"
0-
1#
#272
0#
#273
b1 .
1#
#274
0#
#275
xf"
b1001100 <
bx g"
bx m"
bx n"
xh"
bx l"
0A
b1000 9
1J"
b1001100 >
x-"
bx +"
bx b"
bx *"
bx `"
b0x ?"
b0x e"
1_"
b1010101000001000 &
b1010101000001000 %"
b1010101000001000 9"
0=
0B
0?
0@
b11 C
b11 k"
0j"
0i"
b1010101000001000 7"
b111 '"
b1 /"
b0 I"
b1001100 )
b1001100 4
b1100 \"
b0 .
1"
1-
1#
#276
0#
#277
b1 .
1#
#278
0#
#279
b0 .
0"
0-
1#
#280
0#
#281
b1 .
1#
#282
0#
#283
b0 m"
0f"
b10 g"
b10 <
b10 n"
0h"
b10 l"
b0 o"
b10 >
b1001 9
xA
0-"
b10 +"
b10 b"
b0 *"
b0 `"
b11 ?"
b11 e"
0_"
b11 %
b11 0"
b1010101000001001 &
b1010101000001001 %"
08"
b1010101000001001 9"
b10 )
b10 4
b10 I"
0="
0M"
0O"
b1001100 /"
b11 8
b11 3
b1000 '"
b1010101000001001 7"
x=
xB
x?
x@
bx C
bx k"
xj"
xi"
b10110 \"
b0 .
1"
1-
1#
#284
0#
#285
b1 .
1#
#286
0#
#287
b0 .
0"
0-
1#
#288
0#
#289
b1 .
1#
#290
0#
#291
b10101010 g"
b1010 m"
b1010 n"
b10101010 <
b10101010 l"
b10101010 +"
b10101010 b"
0A
b10101010 >
b1010101000000010 &
b1010101000000010 %"
18"
b1010101000000010 9"
0=
0B
0?
0@
b10 C
b10 k"
0j"
0i"
b1001 '"
b10 /"
b0 I"
b10101010 )
b10101010 4
b10111 \"
b0 .
1"
1-
1#
#292
0#
#293
b1 .
1#
#294
0#
#295
b0 .
0"
0-
1#
#296
0#
#297
b1 .
1#
#298
0#
#299
xf"
b10001101 <
bx g"
bx m"
bx n"
xh"
bx l"
b10001101 >
0J"
b11 9
0A
x-"
bx +"
bx b"
bx *"
bx `"
b0x ?"
b0x e"
b1010101000000011 &
b1010101000000011 %"
b1010101000000011 9"
b10001101 )
b10001101 4
b101 I"
b10101010 /"
1A"
b10 '"
b1010101000000011 7"
1B
b10101010 C
b10101010 k"
1j"
b1100 \"
b0 .
1"
1-
1#
#300
0#
#301
b1 .
1#
#302
0#
#303
b0 .
0"
0-
1#
#304
0#
#305
b1 .
1#
#306
0#
#307
b0 m"
0f"
b0 g"
b0 <
b0 n"
0h"
b0 l"
xA
b100 9
1J"
b0 >
0-"
b0 +"
b0 b"
b0 *"
b0 `"
b11 ?"
b11 e"
b1010101000000100 &
b1010101000000100 %"
b1010101000000100 9"
x=
xB
x?
x@
bx C
bx k"
xj"
xi"
b1010101000000100 7"
b11 '"
b10001101 /"
1]"
b100 I"
b0 )
b0 4
b0 \"
b0 .
1"
1-
1#
#308
0#
#309
b1 .
1#
#310
0#
#311
b0 .
0"
0-
1#
#312
0#
#313
b1 .
1#
#314
0#
#315
xf"
b1000000 <
bx g"
bx m"
bx n"
xh"
bx l"
b1000000 >
b101 9
0A
x-"
bx +"
bx b"
bx *"
bx `"
b0x ?"
b0x e"
1$
b100000000000000 &
b100000000000000 %"
08"
b1010101000000101 9"
b1000000 )
b1000000 4
b0 I"
b0 /"
0A"
b100 '"
b1010101000000101 7"
0=
0B
0?
1@
b0 C
b0 k"
0j"
0i"
b1 \"
b0 .
1"
1-
1#
#316
0#
#317
b1 .
1#
#318
0#
#319
b0 .
0"
0-
1#
#320
0#
#321
b1 .
1#
#322
0#
